<svg width="23" height="22" viewBox="0 0 23 22" fill="none" xmlns="http://www.w3.org/2000/svg">
<line x1="1.63289" y1="1.29289" x2="21.6326" y2="21.2926" stroke="white" stroke-width="2"/>
<line x1="2.21867" y1="21.2926" x2="22.2184" y2="1.29294" stroke="white" stroke-width="2"/>
</svg>
