<svg width="46" height="46" viewBox="0 0 46 46" fill="none" xmlns="http://www.w3.org/2000/svg">
<path d="M24.3171 21.8785C23.981 21.5425 23.4371 21.5425 23.101 21.8785C22.7659 22.2136 22.7659 22.7576 23.101 23.0936C23.4371 23.4288 23.981 23.4288 24.3171 23.0936C24.6522 22.7576 24.6522 22.2136 24.3171 21.8785Z" fill="#94E0E0" stroke="#94E0E0" stroke-width="0.5"/>
<path d="M35.2542 10.94C33.575 9.26091 30.8566 9.26083 29.1773 10.94C27.5025 12.6149 27.5024 15.3408 29.1776 17.017C30.853 18.6914 33.579 18.6921 35.2542 17.0168C36.9333 15.3378 36.9336 12.6193 35.2542 10.94ZM34.0389 15.8014C33.034 16.8064 31.3983 16.8064 30.3929 15.8016C29.3879 14.796 29.3878 13.1602 30.3927 12.1554C31.4002 11.1479 33.0313 11.1478 34.0389 12.1554C35.0463 13.1627 35.0465 14.7939 34.0389 15.8014Z" fill="#94E0E0" stroke="#94E0E0" stroke-width="0.5"/>
<path d="M44.977 1.21705C44.8082 1.04836 44.5779 0.956922 44.3385 0.965945C44.1442 0.972906 39.5178 1.15887 34.0182 3.10269C29.6113 4.65867 25.9381 6.88643 23.1005 9.72408C22.4647 10.3599 21.8459 11.0342 21.2539 11.7347C18.4482 10.0831 16.1999 10.601 14.7786 11.3616C11.506 13.113 9.48041 17.8684 9.48041 21.2698C9.48066 21.6174 9.69009 21.9308 10.0112 22.0637C10.1175 22.1078 10.2292 22.1292 10.3399 22.1292C10.5636 22.1292 10.7833 22.0418 10.9477 21.8775C12.6736 20.1516 14.8023 20.2596 15.4977 20.351L15.7987 20.652C15.2064 22.0613 14.7293 23.4628 14.3794 24.8259C14.253 25.3191 14.2956 25.8411 14.4834 26.3186C13.656 26.6999 12.8577 27.2598 12.1627 27.9548C9.95057 30.167 9.50137 35.5582 9.48333 35.7866C9.46356 36.0373 9.55448 36.2841 9.73229 36.4619C9.89411 36.6237 10.113 36.7137 10.3399 36.7137C10.3624 36.7137 10.385 36.7128 10.4076 36.711C10.636 36.693 16.0274 36.2438 18.2395 34.0317C18.9343 33.3369 19.4941 32.5387 19.8754 31.7115C20.3809 31.9103 20.9011 31.9348 21.369 31.8149C22.7314 31.465 24.1327 30.9881 25.5423 30.3957L25.8432 30.6967C25.9346 31.3922 26.0425 33.5209 24.3167 35.2466C24.071 35.4924 23.9975 35.862 24.1305 36.1831C24.2634 36.5042 24.5768 36.7136 24.9244 36.7136C28.3258 36.7136 33.0811 34.6879 34.8325 31.4154C35.5932 29.9942 36.111 27.7459 34.4595 24.9402C35.1596 24.3484 35.834 23.7296 36.4701 23.0935C39.3077 20.2559 41.5354 16.5827 43.0914 12.1761C45.0353 6.67631 45.2212 2.04979 45.2281 1.85557C45.2367 1.61709 45.1457 1.38584 44.977 1.21705ZM11.4018 19.4214C11.9356 16.8379 13.4862 14.0029 15.59 12.8769C16.9958 12.1247 18.5324 12.1984 20.1663 13.0927C18.7744 14.9234 17.5643 16.8956 16.5556 18.9783C16.5428 18.9704 16.3881 18.7759 16.1008 18.7111C15.9826 18.6844 13.7088 18.1954 11.4018 19.4214ZM17.0242 32.8163C15.8425 33.9979 13.0706 34.6212 11.3186 34.8756C11.5732 33.1235 12.1965 30.3517 13.378 29.1702C14.0397 28.5084 14.807 28.0067 15.5782 27.7242L18.4701 30.6161C18.1876 31.3873 17.686 32.1546 17.0242 32.8163ZM20.942 30.1499C20.6933 30.2136 20.4053 30.1201 20.1911 29.9063C19.0794 28.7945 18.6444 28.3596 18.508 28.2232C18.2577 27.973 17.644 27.3593 16.2885 26.0037C16.0742 25.789 15.9807 25.501 16.0442 25.2527C16.3195 24.1807 16.6795 23.0809 17.1172 21.9705L24.2238 29.0771C23.1133 29.5149 22.0136 29.8748 20.942 30.1499ZM33.3174 30.6044C32.1914 32.708 29.3565 34.2587 26.7731 34.7924C27.5968 33.2424 27.7784 31.2692 27.4774 30.0727C27.4075 29.7948 27.2262 29.655 27.2161 29.6386C29.2986 28.63 31.2708 27.4199 33.1016 26.0279C33.9959 27.662 34.0696 29.1988 33.3174 30.6044ZM35.2549 21.8782C34.4805 22.6525 33.6467 23.4006 32.7765 24.1016C30.6846 25.7859 28.3822 27.2127 25.9257 28.3484L17.8459 20.2688C18.9816 17.8122 20.4084 15.5097 22.0926 13.4181C22.7942 12.5473 23.5422 11.7134 24.3162 10.9394C26.8621 8.39342 30.1478 6.36719 34.0848 4.90867L41.2857 12.1095C39.8273 16.0464 37.8011 19.3321 35.2549 21.8782ZM41.904 10.297L35.8973 4.29035C39.1699 3.27388 42.0169 2.89326 43.438 2.75645C43.3011 4.17777 42.9204 7.02479 41.904 10.297Z" fill="#94E0E0" stroke="#94E0E0" stroke-width="0.5"/>
<path d="M21.8856 36.4616C21.5499 36.126 21.0057 36.1262 20.6702 36.4617L18.2399 38.8929C17.9044 39.2286 17.9045 39.7727 18.2401 40.1082C18.5758 40.4437 19.12 40.4437 19.4555 40.1081L21.8858 37.6769C22.2213 37.3412 22.2212 36.7971 21.8856 36.4616Z" fill="#94E0E0" stroke="#94E0E0" stroke-width="0.5"/>
<path d="M9.73266 24.3084C9.39716 23.9727 8.85309 23.9727 8.51734 24.3082L6.08617 26.7386C5.7505 27.0741 5.75041 27.6182 6.08591 27.9539C6.42132 28.2894 6.96539 28.2897 7.30124 27.9541L9.73241 25.5237C10.0681 25.1882 10.0682 24.6441 9.73266 24.3084Z" fill="#94E0E0" stroke="#94E0E0" stroke-width="0.5"/>
<path d="M15.8092 37.678C15.4738 37.3424 14.9296 37.3424 14.5939 37.6779L8.77252 43.4984C8.43684 43.834 8.43684 44.3782 8.77243 44.7137C9.10784 45.0493 9.65208 45.0495 9.98776 44.7138L15.8092 38.8933C16.1448 38.5577 16.1448 38.0136 15.8092 37.678Z" fill="#94E0E0" stroke="#94E0E0" stroke-width="0.5"/>
<path d="M8.9343 37.678C8.5988 37.3424 8.05456 37.3424 7.71898 37.6779L1.89758 43.4984C1.56191 43.834 1.56191 44.3782 1.89749 44.7137C2.2329 45.0493 2.77715 45.0495 3.11282 44.7138L8.93422 38.8933C9.26989 38.5577 9.26989 38.0136 8.9343 37.678Z" fill="#94E0E0" stroke="#94E0E0" stroke-width="0.5"/>
<path d="M8.51649 30.3849C8.18099 30.0494 7.63675 30.0494 7.30116 30.385L1.48062 36.2064C1.14504 36.5421 1.14504 37.0861 1.48071 37.4218C1.81629 37.7574 2.36045 37.7574 2.69603 37.4217L8.51657 31.6003C8.85216 31.2647 8.85216 30.7206 8.51649 30.3849Z" fill="#94E0E0" stroke="#94E0E0" stroke-width="0.5"/>
<path d="M27.9624 18.2317C27.6267 17.8961 27.0828 17.8961 26.747 18.2317L25.5318 19.4468C25.1963 19.7824 25.1963 20.3266 25.5318 20.6622C25.8675 20.9978 26.4116 20.9978 26.7473 20.6622L27.9624 19.4471C28.298 19.1115 28.298 18.5673 27.9624 18.2317Z" fill="#94E0E0" stroke="#94E0E0" stroke-width="0.5"/>
</svg>
