<svg width="16" height="13" viewBox="0 0 16 13" fill="none" xmlns="http://www.w3.org/2000/svg">
<path d="M1.91113 6.60896L5.70061 10.3984L13.7006 2.39844" stroke="white" stroke-width="3" stroke-linecap="round"/>
</svg>
