<svg width="48" height="46" viewBox="0 0 48 46" fill="none" xmlns="http://www.w3.org/2000/svg">
<path d="M1.46992 19.9313H5.67849C5.92741 20.8289 6.28598 21.6925 6.74708 22.5018L3.76831 25.4793C3.62607 25.6216 3.54606 25.8145 3.54606 26.016C3.54606 26.2175 3.62607 26.4104 3.76831 26.5527L6.98652 29.7718C7.28286 30.0675 7.76292 30.0675 8.05926 29.7718L11.0383 26.7924C11.8476 27.2532 12.7103 27.6121 13.6079 27.8607V32.0693C13.6079 32.4883 13.9475 32.8279 14.3665 32.8279H18.9182C19.3372 32.8279 19.6768 32.4883 19.6768 32.0693V27.8607C20.5744 27.6121 21.4371 27.2532 22.2464 26.7924L25.2254 29.7718C25.5265 30.0563 25.9974 30.0563 26.2982 29.7718L29.517 26.5527C29.6592 26.4104 29.7392 26.2175 29.7392 26.016C29.7392 25.8145 29.6592 25.6216 29.517 25.4793L26.5376 22.5018C26.9987 21.6925 27.3573 20.8289 27.6062 19.9313H31.8148C32.2338 19.9313 32.5734 19.5917 32.5734 19.1727V14.621C32.5734 14.2023 32.2338 13.8624 31.8148 13.8624H27.6062C27.3573 12.9651 26.9987 12.1015 26.5376 11.2922L29.5164 8.31466C29.6586 8.17242 29.7386 7.97951 29.7386 7.778C29.7386 7.57649 29.6586 7.38357 29.5164 7.24133L26.2982 4.02223C26.0018 3.72619 25.5218 3.72619 25.2254 4.02223L22.2464 7.0016C21.4371 6.54109 20.5741 6.18223 19.6768 5.9333V1.72444C19.6768 1.30572 19.3372 0.96582 18.9182 0.96582H14.3665C13.9475 0.96582 13.6079 1.30572 13.6079 1.72444V5.9333C12.7106 6.18223 11.8476 6.54109 11.0383 7.0016L8.05926 4.02223C7.75818 3.73775 7.2873 3.73775 6.98652 4.02223L3.76772 7.24133C3.62547 7.38357 3.54546 7.57649 3.54546 7.778C3.54546 7.97951 3.62547 8.17242 3.76772 8.31466L6.74708 11.2922C6.28598 12.1015 5.92741 12.9651 5.67849 13.8624H1.46992C1.0509 13.8624 0.711304 14.2023 0.711304 14.621V19.1727C0.711304 19.5917 1.0509 19.9313 1.46992 19.9313ZM2.22855 15.3796H6.27205C6.62855 15.3796 6.93703 15.1316 7.01319 14.7834C7.26211 13.6472 7.71225 12.5644 8.34226 11.5865C8.53458 11.2866 8.49191 10.8928 8.23973 10.6406L5.37682 7.7777L7.52289 5.63134L10.3852 8.49424C10.6374 8.74702 11.0315 8.78969 11.332 8.59707C12.3102 7.96736 13.3927 7.51722 14.5289 7.268C14.8768 7.19155 15.1251 6.88306 15.1251 6.52657V2.48306H18.1596V6.52657C18.1596 6.88306 18.4079 7.19155 18.7558 7.268C19.892 7.51722 20.9745 7.96736 21.9527 8.59707C22.2532 8.78969 22.6473 8.74702 22.8995 8.49424L25.7618 5.63134L27.9073 7.7777L25.045 10.6397C24.7922 10.8922 24.7498 11.2863 24.9424 11.5865C25.5724 12.565 26.022 13.6475 26.2706 14.784C26.3471 15.1322 26.6555 15.3805 27.0117 15.3805H31.0561V18.415H27.0117C26.6555 18.415 26.3471 18.663 26.2706 19.0112C26.022 20.1474 25.5721 21.2299 24.9424 22.2072C24.7501 22.5074 24.7928 22.9012 25.045 23.1534L27.9079 26.0157L25.7618 28.1627L22.8995 25.2995C22.6473 25.047 22.2532 25.0043 21.9527 25.1969C20.9751 25.8269 19.8929 26.2771 18.7567 26.526C18.4082 26.6019 18.1596 26.9106 18.1596 27.2671V31.3106H15.1251V27.2671C15.1251 26.9106 14.8765 26.6019 14.528 26.526C13.3918 26.2771 12.3096 25.8269 11.332 25.1969C11.0315 25.0043 10.6374 25.047 10.3852 25.2995L7.52289 28.1627L5.37741 26.0163L8.23973 23.154C8.4925 22.9018 8.53488 22.5077 8.34226 22.2072C7.71225 21.229 7.26211 20.1462 7.01319 19.0097C6.93674 18.6615 6.62855 18.4141 6.27205 18.4141H2.22855V15.3796Z" fill="#94E0E0" stroke="#94E0E0" stroke-width="0.5"/>
<path d="M16.6423 22.9661C19.9942 22.9661 22.7113 20.2492 22.7113 16.8971C22.7113 13.5452 19.9942 10.8281 16.6423 10.8281C13.2905 10.8281 10.5734 13.5452 10.5734 16.8971C10.5769 20.2472 13.2922 22.9625 16.6423 22.9661ZM16.6423 12.3454C19.1559 12.3454 21.1941 14.3836 21.1941 16.8971C21.1941 19.4109 19.1559 21.4488 16.6423 21.4488C14.1288 21.4488 12.0906 19.4109 12.0906 16.8971C12.0933 14.3842 14.1294 12.348 16.6423 12.3454Z" fill="#94E0E0" stroke="#94E0E0" stroke-width="0.5"/>
<path d="M43.9527 35.8622V29.7932C43.9527 29.3745 43.6131 29.0346 43.1941 29.0346H41.6768V22.9657C41.6768 22.5469 41.3372 22.207 40.9182 22.207H34.0906C33.6716 22.207 33.332 22.5469 33.332 22.9657V29.0346H29.5389C29.1199 29.0346 28.7803 29.3745 28.7803 29.7932V35.8622H4.50441C2.4105 35.8649 0.713971 37.5614 0.711304 39.6553V41.1726C0.713971 43.2668 2.4105 44.9633 4.50441 44.9657H43.9527C46.0466 44.9633 47.7431 43.2668 47.7458 41.1726V39.6553C47.7431 37.5614 46.0466 35.8649 43.9527 35.8622ZM42.4354 35.8622H37.1251V30.5519H42.4354V35.8622ZM34.8492 23.7243H40.1596V29.0346H34.8492V23.7243ZM30.2975 30.5519H35.6079V35.8622H30.2975V30.5519ZM46.2285 41.1726C46.2285 42.4296 45.2094 43.4484 43.9527 43.4484H4.50441C3.24765 43.4484 2.22855 42.4296 2.22855 41.1726V39.6553C2.22855 38.3985 3.24765 37.3794 4.50441 37.3794H43.9527C45.2094 37.3794 46.2285 38.3985 46.2285 39.6553V41.1726Z" fill="#94E0E0" stroke="#94E0E0" stroke-width="0.5"/>
<path d="M24.2285 38.1387C22.9717 38.1387 21.9526 39.1578 21.9526 40.4145C21.9526 41.6716 22.9717 42.6904 24.2285 42.6904C25.4853 42.6904 26.5044 41.6716 26.5044 40.4145C26.5044 39.1578 25.4853 38.1387 24.2285 38.1387ZM24.2285 41.1732C23.8095 41.1732 23.4699 40.8336 23.4699 40.4145C23.4699 39.9958 23.8095 39.6559 24.2285 39.6559C24.6475 39.6559 24.9871 39.9958 24.9871 40.4145C24.9871 40.8336 24.6475 41.1732 24.2285 41.1732Z" fill="#94E0E0" stroke="#94E0E0" stroke-width="0.5"/>
<path d="M16.6423 38.1387C15.3856 38.1387 14.3665 39.1578 14.3665 40.4145C14.3665 41.6716 15.3856 42.6904 16.6423 42.6904C17.8991 42.6904 18.9182 41.6716 18.9182 40.4145C18.9182 39.1578 17.8991 38.1387 16.6423 38.1387ZM16.6423 41.1732C16.2233 41.1732 15.8837 40.8336 15.8837 40.4145C15.8837 39.9958 16.2233 39.6559 16.6423 39.6559C17.0613 39.6559 17.4009 39.9958 17.4009 40.4145C17.4009 40.8336 17.0613 41.1732 16.6423 41.1732Z" fill="#94E0E0" stroke="#94E0E0" stroke-width="0.5"/>
<path d="M31.8148 38.1387C30.558 38.1387 29.5389 39.1578 29.5389 40.4145C29.5389 41.6716 30.558 42.6904 31.8148 42.6904C33.0716 42.6904 34.0907 41.6716 34.0907 40.4145C34.0907 39.1578 33.0716 38.1387 31.8148 38.1387ZM31.8148 41.1732C31.3958 41.1732 31.0562 40.8336 31.0562 40.4145C31.0562 39.9958 31.3958 39.6559 31.8148 39.6559C32.2338 39.6559 32.5734 39.9958 32.5734 40.4145C32.5734 40.8336 32.2338 41.1732 31.8148 41.1732Z" fill="#94E0E0" stroke="#94E0E0" stroke-width="0.5"/>
<path d="M9.05614 38.1387C7.79937 38.1387 6.78027 39.1578 6.78027 40.4145C6.78027 41.6716 7.79937 42.6904 9.05614 42.6904C10.3129 42.6904 11.332 41.6716 11.332 40.4145C11.332 39.1578 10.3129 38.1387 9.05614 38.1387ZM9.05614 41.1732C8.63712 41.1732 8.29751 40.8336 8.29751 40.4145C8.29751 39.9958 8.63712 39.6559 9.05614 39.6559C9.47516 39.6559 9.81476 39.9958 9.81476 40.4145C9.81476 40.8336 9.47516 41.1732 9.05614 41.1732Z" fill="#94E0E0" stroke="#94E0E0" stroke-width="0.5"/>
<path d="M39.401 38.1387C38.1442 38.1387 37.1251 39.1578 37.1251 40.4145C37.1251 41.6716 38.1442 42.6904 39.401 42.6904C40.6577 42.6904 41.6768 41.6716 41.6768 40.4145C41.6768 39.1578 40.6577 38.1387 39.401 38.1387ZM39.401 41.1732C38.982 41.1732 38.6424 40.8336 38.6424 40.4145C38.6424 39.9958 38.982 39.6559 39.401 39.6559C39.82 39.6559 40.1596 39.9958 40.1596 40.4145C40.1596 40.8336 39.82 41.1732 39.401 41.1732Z" fill="#94E0E0" stroke="#94E0E0" stroke-width="0.5"/>
</svg>
