<svg width="52" height="36" viewBox="0 0 52 36" fill="none" xmlns="http://www.w3.org/2000/svg">
<path d="M50.2641 8.30884L39.7093 4.74174C39.3262 4.61282 38.9104 4.81791 38.7808 5.20114C38.6513 5.58436 38.857 6.00011 39.2403 6.12961L49.6943 9.66273L44.7734 12.0618C44.5691 11.924 44.3398 11.8182 44.0911 11.7533L29.331 7.89573C28.8618 5.48201 25.89 4.46897 24.0646 6.18674C23.4328 6.78131 23.0704 7.61974 23.0704 8.48707L23.0704 8.50309C23.0756 9.52434 23.9209 10.3552 24.9548 10.3552L27.5032 10.3552C28.1613 10.3552 28.8194 10.0118 29.1608 9.36535L42.9255 12.9628C38.5762 15.0833 28.8126 19.8434 27.568 20.4503C26.6894 20.8785 25.7105 20.8504 24.8899 20.4503L2.76349 9.66273L25.2506 2.06287C25.8814 1.84957 26.5764 1.84957 27.2072 2.06287L35.9867 5.03013C36.3701 5.15953 36.7856 4.95415 36.9152 4.57073C37.0447 4.1875 36.839 3.77176 36.4558 3.64226L27.6763 0.674992C26.7428 0.359641 25.7149 0.359641 24.7815 0.674992L2.19363 8.30884C0.993562 8.71472 0.885254 10.3768 2.02585 10.9328L13.6181 16.5845C12.9804 19.6164 12.0067 22.8806 10.9484 25.7778C10.5152 26.9627 10.8885 28.2807 11.877 29.0577C15.2224 31.6871 19.1752 33.7182 23.2265 35.0239C25.1303 35.6373 27.2532 35.6609 29.2309 35.0239C33.2835 33.7177 37.2366 31.6857 40.5803 29.0577C41.5724 28.2777 41.9406 26.9591 41.5088 25.7778C40.4729 22.9449 39.486 19.6594 38.8393 16.5848L44.2921 13.9264L44.2921 24.9504C43.3601 25.0218 42.6232 25.8013 42.6232 26.7512L42.6232 28.8857C42.6232 29.2028 42.7609 29.4877 42.9787 29.6862L42.7066 33.7999C42.6534 34.6036 43.2924 35.2866 44.0981 35.2866L45.9512 35.2866C46.7565 35.2866 47.3958 34.6039 47.3427 33.7999L47.0707 29.6862C47.2885 29.4877 47.4262 29.2029 47.4262 28.8857L47.4262 26.7511C47.4262 25.8012 46.6891 25.0217 45.7571 24.9503L45.7571 13.9104C45.7571 13.6853 45.7217 13.4673 45.6584 13.2602L50.4319 10.9329C51.5711 10.3775 51.4662 8.71531 50.2641 8.30884ZM27.5032 8.89022L24.9548 8.89022C24.7286 8.89022 24.5365 8.70955 24.5354 8.49938L24.5354 8.48707C24.5354 8.01517 24.7246 7.57716 25.0685 7.2535C26.1234 6.26077 27.852 6.97536 27.9204 8.40318C27.9368 8.7451 27.7166 8.89022 27.5032 8.89022ZM39.3083 23.8949C35.3509 26.9922 29.7347 29.2078 27.8002 29.5766C27.4028 29.6524 27.1422 30.036 27.218 30.4333C27.2937 30.8308 27.6784 31.0914 28.0746 31.0156C30.0981 30.6297 35.6421 28.4752 39.804 25.3606C39.9063 25.6525 40.0249 25.9849 40.133 26.2807C40.3478 26.8686 40.1637 27.5216 39.675 27.9059C35.7305 31.006 31.5739 32.7295 28.7815 33.6293C27.1137 34.1669 25.3021 34.1536 23.6759 33.6293C20.8835 32.7294 16.7269 31.006 12.7823 27.9059C12.2937 27.5218 12.1094 26.8689 12.3245 26.2806C12.3288 26.2689 12.333 26.257 12.3373 26.2452C12.4437 25.9536 12.5617 25.6227 12.6534 25.3604C16.7169 28.4005 22.2458 30.6083 24.382 31.0158C24.7799 31.0914 25.1631 30.831 25.2388 30.4337C25.3146 30.0363 25.054 29.6527 24.6567 29.5769C22.8304 29.2287 17.195 27.0599 13.1491 23.8948C13.7439 22.0757 14.4332 19.7378 14.975 17.2461L24.2479 21.7669C25.4825 22.3688 26.9271 22.3924 28.21 21.7669L37.4822 17.2463C38.0241 19.7379 38.7134 22.0758 39.3083 23.8949ZM44.1732 33.8216L44.428 29.9699L45.6212 29.9699L45.8759 33.8216L44.1732 33.8216ZM45.9612 26.751L45.9612 28.5049L44.0881 28.5049L44.0881 26.751C44.0881 26.5652 44.245 26.4082 44.431 26.4082L45.6182 26.4082C45.804 26.4083 45.9612 26.5652 45.9612 26.751Z" fill="#94E0E0" stroke="#94E0E0" stroke-width="0.5"/>
</svg>
