<svg width="145" height="60" viewBox="0 0 145 60" fill="none" xmlns="http://www.w3.org/2000/svg">
<path d="M15.9756 52.8295C15.9756 52.1968 15.8174 51.775 15.5538 51.5114C15.2902 51.2478 14.9211 51.0896 14.4466 51.0896H11.5995V50.5096H14.552C15.9756 50.5096 16.661 51.3005 16.661 52.8295V57.4692H15.9756V52.8295ZM11.5995 54.0949L11.7049 53.2513H12.2849V57.5219H11.5995V54.0949Z" fill="#202020"/>
<path d="M22.3025 50.5096H22.9879L23.726 56.942C24.7278 56.8365 25.5714 56.5202 26.2041 55.9402C26.8368 55.3602 27.1531 54.4639 27.1531 53.2513V52.9349C27.1531 52.355 26.9949 51.8805 26.7313 51.5641C26.415 51.2478 25.9932 51.0369 25.4132 50.9841H24.7805L24.8332 50.4042L25.5187 50.4569C26.9949 50.5623 27.7858 51.3532 27.8385 52.8295V53.1986C27.8912 54.6221 27.4695 55.7293 26.5731 56.4147C25.6768 57.1001 24.5169 57.5219 23.0934 57.5747L22.3025 50.5096Z" fill="#202020"/>
<path d="M37.8034 50.5098V51.1425L35.3254 57.4694H34.64L37.118 51.0898H33.111V48.4009H33.7437V50.5098H37.8034Z" fill="#202020"/>
<path d="M46.4501 50.5096C47.1355 50.5096 47.6627 50.7205 48.0318 51.1423C48.4009 51.5641 48.559 52.1968 48.559 53.0404V57.4692H47.8736V53.0404C47.8736 52.4077 47.7682 51.8805 47.5046 51.5641C47.2409 51.2478 46.8719 51.0369 46.3446 51.0369H44.0775V57.4692H43.3921V50.6678V50.5096H46.4501Z" fill="#202020"/>
<path d="M58.7346 52.8295C58.7346 52.1968 58.5764 51.775 58.3128 51.5114C58.0492 51.2478 57.6801 51.0896 57.2056 51.0896H54.3585V50.5096H57.3111C58.7346 50.5096 59.42 51.3005 59.42 52.8295V57.4692H58.7346V52.8295ZM54.3585 54.0949L54.464 53.2513H55.0439V57.5219H54.3585V54.0949Z" fill="#202020"/>
<path d="M76.2919 50.5098V51.1425L73.7612 57.4694H73.0758L75.5538 51.0898H71.5468V48.4009H72.1794V50.5098H76.2919Z" fill="#202020"/>
<path d="M81.5641 56.8893H83.1458C84.6748 56.8893 85.4129 56.0457 85.4129 54.3585V53.6204C85.4129 51.9332 84.6748 51.0896 83.1458 51.0896H81.5641V50.5096H83.1985C84.0948 50.5096 84.833 50.7733 85.3075 51.3005C85.782 51.8277 86.0456 52.6186 86.0456 53.6204V54.3058C86.0456 55.3603 85.782 56.0984 85.3075 56.6256C84.833 57.1529 84.0948 57.4165 83.1985 57.4165H81.5641V56.8893Z" fill="#202020"/>
<path d="M96.9599 56.8893V57.4692H95.3782H91.6348V56.8893H95.3782V52.8295C95.3782 52.1968 95.22 51.775 94.9564 51.5114C94.6928 51.2478 94.3237 51.0896 93.7964 51.0896H91.582V50.5096H93.9019C95.3254 50.5096 96.0109 51.3005 96.0109 52.8295V56.8893H96.9599Z" fill="#202020"/>
<path d="M112.83 52.8295C112.83 52.1968 112.671 51.775 112.408 51.5114C112.144 51.2478 111.775 51.0896 111.248 51.0896H108.875V50.5096H111.406C112.83 50.5096 113.515 51.3005 113.515 52.8295V60H112.83V52.8295Z" fill="#202020"/>
<path d="M118.84 57.1529C119.367 57.1002 119.684 56.942 119.895 56.6784C120.106 56.4147 120.211 56.0457 120.211 55.5184V50.5096H123.058C124.482 50.5096 125.167 51.3005 125.167 52.8295V57.4692H124.482V52.8295C124.482 52.1968 124.324 51.775 124.06 51.5114C123.796 51.2478 123.427 51.0896 122.9 51.0896H120.844V55.4657C120.844 56.1511 120.686 56.6784 120.369 57.0474C120.053 57.4165 119.578 57.6274 118.84 57.6801V57.1529Z" fill="#202020"/>
<path d="M131.125 51.9859L130.967 50.5096H131.652L131.81 51.9859V53.8313V54.6221L131.125 54.7803V51.9859Z" fill="#202020"/>
<path d="M142.461 57.4692L139.403 52.935L137.979 57.4692H137.294L138.665 53.0931L138.981 52.3023L137.821 50.5096H138.559L139.719 52.3023L140.984 54.2003L141.248 53.1986L142.092 50.5096H142.777L141.353 54.833L143.146 57.4692H142.461Z" fill="#202020"/>
<path d="M0 15.6591C0 18.5589 2.37258 20.9315 5.27241 20.9315H6.64324V6.32689H20.9315V5.27241C20.9315 2.37258 18.5589 0 15.6591 0L0 0V15.6591Z" fill="#94E0E0"/>
<path d="M33.7433 13.3919C31.7926 11.9156 28.5237 11.1775 23.9894 11.1775C23.7785 11.1775 23.6203 11.1775 23.4094 11.1775H11.5465V12.232V14.0246V43.2337H36.7486V20.4569C36.7486 17.2408 35.7469 14.8682 33.7433 13.3919ZM29.2618 37.5395H19.0333V17.1353C20.6151 17.0299 21.9332 16.9771 23.0931 16.9771C25.0439 16.9771 26.5729 17.188 27.5746 17.6098C28.7346 18.0843 29.3145 19.0334 29.3145 20.5097V37.5395H29.2618Z" fill="#202020"/>
<path d="M41.863 32.5835H44.3938L49.3499 26.2566V11.7047H41.863V32.5835Z" fill="#202020"/>
<path d="M80.9843 16.5026C80.6679 15.6063 80.1934 14.8155 79.6134 14.2355C79.0335 13.6028 78.2426 13.0756 77.3463 12.6011C75.501 11.652 72.7593 11.2302 69.1213 11.2302C64.1653 11.2302 59.2092 11.5993 54.2004 12.2847V17.9262L57.7329 17.5571V33.9016C57.7329 34.9033 57.5748 35.7997 57.2584 36.5378C57.0475 36.9596 56.7839 37.2759 56.3621 37.4868C55.993 37.6977 55.4658 37.8032 54.8331 37.8032C54.2004 37.8032 53.3568 37.645 52.2496 37.3814V43.0756C53.3041 43.4974 54.5695 43.761 55.9403 43.761C57.3111 43.761 58.5238 43.6028 59.6837 43.2865C60.7909 42.9701 61.74 42.4956 62.4254 41.9156C64.3235 40.3866 65.2198 37.7504 65.2198 33.9543V17.0826C66.2742 17.0299 67.276 17.0299 68.225 17.0299C72.3375 17.0299 74.3938 18.9279 74.3938 22.6714V43.2337H81.8806V22.6186C81.8806 21.3533 81.8279 20.246 81.7224 19.297C81.5642 18.348 81.3533 17.4517 80.9843 16.5026Z" fill="#202020"/>
<path d="M111.195 14.1301C110.51 13.2337 109.561 12.5483 108.401 12.0211C107.241 11.4938 105.976 11.2302 104.552 11.2302C103.128 11.2302 101.863 11.4411 100.756 11.8102C99.6487 12.1793 98.7524 12.6011 98.0669 13.0756C97.4343 13.5501 96.8016 14.0773 96.2743 14.71C95.7471 15.29 95.4307 15.7118 95.2726 15.9754C95.1671 16.1863 95.0617 16.3972 94.9562 16.5554H94.4817L93.7963 13.9192C93.5327 13.0756 93.3218 12.3374 93.0582 11.7047H85.9404C87.1531 14.9736 87.733 18.0844 87.733 21.0369C87.733 21.775 87.6803 22.5132 87.6276 23.2513L85.7822 43.2865H93.0582L94.9035 22.2496L95.1671 21.7223C95.5362 20.9315 96.2216 20.0351 97.1706 18.9807C97.6452 18.4534 98.2251 18.0316 98.9105 17.7153C99.6487 17.3462 100.387 17.188 101.125 17.188C102.759 17.188 103.919 17.6626 104.71 18.6643C105.079 19.1388 105.396 19.6661 105.659 20.1933C106.186 21.406 106.45 23.4095 106.45 26.3093V37.5923H100.598V43.2338H114.095V25.413C114.095 22.2496 113.673 19.5606 112.882 17.3462C112.513 16.0808 111.933 15.0264 111.195 14.1301Z" fill="#202020"/>
<path d="M141.986 26.0984C142.355 25.2021 142.724 24.4112 142.988 23.7258C143.515 22.355 143.884 20.2987 144.148 17.5571L144.675 11.7574H137.293L136.714 18.6643C136.397 21.8805 135.712 24.3058 134.552 25.9402L125.747 11.7047H117.364L128.489 29.2618L135.343 37.8031V37.9086L129.701 37.5395H117.522V43.2337H144.464V38.9103L138.19 30.8436C139.93 29.42 141.195 27.8383 141.986 26.0984Z" fill="#202020"/>
</svg>
