<svg width="291" height="736" viewBox="0 0 291 736" fill="none" xmlns="http://www.w3.org/2000/svg">
<rect x="0.890101" width="78.2341" height="78.2341" transform="matrix(0.890101 -0.455763 0.890101 0.455763 0.0978211 169.403)" fill="white" stroke="#EAECF5"/>
<path d="M70.6459 204.853L140.922 169.059V233.398L70.6459 270.348V204.853Z" fill="url(#paint0_linear)"/>
<path d="M70.6459 204.853L140.922 169.059V233.398L70.6459 270.348V204.853Z" fill="white"/>
<path d="M70.6459 204.853L140.922 169.059V233.398L70.6459 270.348V204.853Z" fill="url(#paint1_linear)" fill-opacity="0.8"/>
<path d="M70.5091 205.061L0.231079 169.059V233.225L70.5091 268.962V205.061Z" fill="url(#paint2_linear)"/>
<path d="M70.5091 205.061L0.231079 169.059V233.225L70.5091 268.962V205.061Z" fill="white"/>
<path d="M70.5091 205.061L0.231079 169.059V233.225L70.5091 268.962V205.061Z" fill="url(#paint3_linear)" fill-opacity="0.8"/>
<rect x="0.890101" width="78.1748" height="78.1748" transform="matrix(0.890101 -0.455763 0.890101 0.455763 148.996 326.514)" fill="white" stroke="#EAECF5"/>
<path d="M219.491 361.936L289.715 326.169V390.46L219.491 427.382V361.936Z" fill="url(#paint4_linear)"/>
<path d="M219.491 361.936L289.715 326.169V390.46L219.491 427.382V361.936Z" fill="white"/>
<path d="M219.491 361.936L289.715 326.169V390.46L219.491 427.382V361.936Z" fill="url(#paint5_linear)" fill-opacity="0.8"/>
<path d="M219.355 362.145L149.129 326.169V390.288L219.355 425.998V362.145Z" fill="url(#paint6_linear)"/>
<path d="M219.355 362.145L149.129 326.169V390.288L219.355 425.998V362.145Z" fill="white"/>
<path d="M219.355 362.145L149.129 326.169V390.288L219.355 425.998V362.145Z" fill="url(#paint7_linear)" fill-opacity="0.8"/>
<g clip-path="url(#clip0)">
<path fill-rule="evenodd" clip-rule="evenodd" d="M187.367 288.86C187.95 288.86 188.474 289.323 188.474 289.959C188.474 290.537 188.008 291.058 187.367 291.058H175.311C174.729 291.058 174.205 290.595 174.205 289.959C174.205 289.38 174.671 288.86 175.311 288.86H187.367Z" fill="#94E0E0"/>
<path fill-rule="evenodd" clip-rule="evenodd" d="M196.279 266.939C196.687 267.343 196.687 268.038 196.279 268.442C195.871 268.847 195.172 268.847 194.765 268.442L186.087 259.882C185.679 259.477 185.679 258.783 186.087 258.378C186.494 257.973 187.193 257.973 187.601 258.378L196.279 266.939Z" fill="#94E0E0"/>
<path fill-rule="evenodd" clip-rule="evenodd" d="M219.109 260.23C219.109 260.808 218.643 261.328 218.002 261.328C217.42 261.328 216.896 260.866 216.896 260.23V247.968C216.896 247.389 217.362 246.869 218.002 246.869C218.585 246.869 219.109 247.331 219.109 247.968V260.23Z" fill="#94E0E0"/>
<path fill-rule="evenodd" clip-rule="evenodd" d="M248.636 291C248.053 291 247.529 290.537 247.529 289.901C247.529 289.322 247.995 288.802 248.636 288.802H260.75C261.332 288.802 261.856 289.264 261.856 289.901C261.856 290.479 261.39 291 260.75 291H248.636Z" fill="#94E0E0"/>
<path fill-rule="evenodd" clip-rule="evenodd" d="M241.24 268.443C240.833 268.848 240.134 268.848 239.726 268.443C239.318 268.038 239.318 267.344 239.726 266.939L248.404 258.321C248.812 257.916 249.511 257.916 249.918 258.321C250.326 258.726 250.326 259.42 249.918 259.825L241.24 268.443Z" fill="#94E0E0"/>
<path fill-rule="evenodd" clip-rule="evenodd" d="M223.184 330.852L222.077 332.934L222.019 333.049L221.961 333.165L221.903 333.281L221.786 333.396L221.67 333.512L221.553 333.57L221.437 333.686L221.262 333.801L221.145 333.917L220.971 333.975L220.796 334.091L220.621 334.148L220.446 334.264L220.272 334.322L220.097 334.38L219.922 334.438L219.689 334.495L219.515 334.553L219.282 334.611L219.107 334.669H218.874L218.699 334.727H218.466H218.233H218.059H217.826H217.593H217.418H217.185H217.01L216.777 334.669H216.544L216.37 334.611L216.137 334.553L215.962 334.495L215.787 334.438L215.554 334.38L215.38 334.322L215.205 334.264L215.03 334.148L214.855 334.091L214.681 333.975L214.506 333.917L214.389 333.801L214.215 333.686L214.098 333.57L213.982 333.512L213.865 333.396L213.807 333.281L213.691 333.165L213.632 333.049L213.574 332.934L212.467 330.852L212.584 331.025L212.7 331.141L212.759 331.314L212.875 331.43L213.05 331.546L213.166 331.719L213.341 331.835L213.516 331.951L213.691 332.066L213.923 332.182L214.098 332.298L214.331 332.413L214.564 332.529L214.797 332.587L215.03 332.702L215.263 332.76L215.496 332.818L215.729 332.876L216.02 332.934L216.253 332.992L216.486 333.049L216.777 333.107H217.01H217.301H217.593L217.826 333.165L218.117 333.107H218.35H218.641H218.874L219.165 333.049L219.398 332.992L219.689 332.934L219.922 332.876L220.155 332.818L220.446 332.76L220.679 332.702L220.912 332.587L221.145 332.529L221.32 332.413L221.553 332.298L221.786 332.182L221.961 332.066L222.135 331.951L222.31 331.835L222.485 331.719L222.66 331.546L222.776 331.43L222.893 331.314L223.009 331.141L223.067 331.025L223.184 330.852Z" fill="white" stroke="#000F3E" stroke-width="0.5" stroke-miterlimit="10"/>
<path fill-rule="evenodd" clip-rule="evenodd" d="M228.311 325.936L226.214 329.985L226.098 330.216L225.923 330.448L225.748 330.679L225.574 330.852L225.399 331.084L225.166 331.315L224.875 331.489L224.642 331.72L224.351 331.893L224.001 332.067L223.71 332.241L223.36 332.414L223.011 332.588L222.662 332.703L222.254 332.877L221.904 332.992L221.497 333.108L221.147 333.166L220.74 333.282L220.332 333.339L219.924 333.397L219.517 333.455L219.109 333.513H218.701L218.235 333.571H217.828H217.42L217.012 333.513H216.604L216.139 333.455L215.731 333.397L215.323 333.339L214.915 333.282L214.566 333.166L214.158 333.108L213.751 332.992L213.401 332.877L213.052 332.703L212.644 332.588L212.295 332.414L212.003 332.241L211.654 332.067L211.363 331.893L211.072 331.72L210.78 331.489L210.547 331.315L210.314 331.084L210.081 330.852L209.907 330.679L209.732 330.448L209.557 330.216L209.441 329.985L207.344 325.936L207.519 326.225L207.694 326.514L207.927 326.746L208.159 327.035L208.392 327.324L208.684 327.556L209.033 327.845L209.383 328.076L209.732 328.307L210.081 328.539L210.489 328.77L210.955 329.002L211.363 329.175L211.829 329.349L212.295 329.522L212.761 329.696L213.226 329.811L213.751 329.927L214.217 330.043L214.741 330.158L215.207 330.216L215.731 330.274L216.255 330.332L216.779 330.39H217.303H217.828H218.352H218.876L219.4 330.332L219.924 330.274L220.448 330.216L220.973 330.158L221.438 330.043L221.963 329.927L222.429 329.811L222.895 329.696L223.419 329.522L223.826 329.349L224.292 329.175L224.758 329.002L225.166 328.77L225.574 328.539L225.981 328.307L226.331 328.076L226.68 327.845L226.971 327.556L227.263 327.324L227.496 327.035L227.729 326.746L227.961 326.514L228.136 326.225L228.311 325.936Z" fill="white" stroke="#000F3E" stroke-width="0.5" stroke-miterlimit="10"/>
<path fill-rule="evenodd" clip-rule="evenodd" d="M225.515 330.447C228.427 328.77 229.359 326.398 228.252 324.258L226.155 320.209L226.039 319.978L225.864 319.747L225.689 319.515L225.515 319.284L225.282 319.053L225.049 318.821L224.816 318.59L224.525 318.416L224.233 318.243L223.942 318.069L223.593 317.896L223.243 317.722L222.894 317.549L222.544 317.433L222.195 317.317L221.846 317.202L221.438 317.086L221.03 316.97L220.622 316.913L220.215 316.855L219.807 316.797L219.399 316.739L218.992 316.681H218.584H218.176H217.769H217.361H216.953H216.546L216.138 316.739L215.73 316.797L215.381 316.855L214.973 316.913L214.565 316.97L214.158 317.086L213.75 317.202L213.401 317.317L213.051 317.433L212.702 317.549L212.352 317.722L212.003 317.896L211.653 318.069L211.362 318.243L211.071 318.416L210.78 318.59L210.547 318.821L210.314 319.053L210.081 319.284L209.906 319.515L209.731 319.747L209.557 319.978L209.44 320.209L207.343 324.258C206.237 326.398 207.169 328.77 210.081 330.447C214.391 332.876 221.263 332.876 225.515 330.447Z" fill="white" stroke="#000F3E" stroke-width="0.5" stroke-miterlimit="10"/>
<path fill-rule="evenodd" clip-rule="evenodd" d="M228.6 325.241C228.542 324.894 228.425 324.605 228.251 324.258L226.154 320.209L226.037 319.978L225.863 319.747L225.688 319.515L225.513 319.284L225.28 319.053L225.047 318.821L224.814 318.59L224.523 318.416L224.232 318.243L223.941 318.069L223.591 317.896L223.242 317.722L222.892 317.549L222.543 317.433L222.193 317.317L221.844 317.202L221.436 317.086L221.029 316.97L220.621 316.913L220.213 316.855L219.806 316.797L219.398 316.739L218.99 316.681H218.583H218.175H217.767H217.359H216.952H216.544L216.136 316.739L215.729 316.797L215.379 316.855L214.972 316.913L214.564 316.97L214.156 317.086L213.749 317.202L213.399 317.317L213.05 317.433L212.7 317.549L212.351 317.722L212.001 317.896L211.652 318.069L211.361 318.243L211.069 318.416L210.778 318.59L210.545 318.821L210.312 319.053L210.079 319.284L209.905 319.515L209.73 319.747L209.555 319.978L209.439 320.209L207.342 324.258C207.167 324.605 207.051 324.894 206.993 325.241C207.284 326.572 208.332 327.844 210.079 328.885C214.331 331.315 221.203 331.315 225.455 328.885C227.319 327.844 228.309 326.572 228.6 325.241Z" fill="white" stroke="#000F3E" stroke-width="0.5" stroke-miterlimit="10"/>
<path fill-rule="evenodd" clip-rule="evenodd" d="M224.058 326.513C227.495 324.547 227.495 321.308 224.058 319.341C220.622 317.375 215.031 317.375 211.595 319.341C208.159 321.308 208.159 324.547 211.595 326.513C215.031 328.48 220.622 328.48 224.058 326.513Z" fill="white" stroke="#000F3E" stroke-width="0.5" stroke-miterlimit="10"/>
<path fill-rule="evenodd" clip-rule="evenodd" d="M225.515 327.15C228.427 325.472 229.359 323.101 228.253 320.961L226.156 316.912L226.04 316.681L225.865 316.449L225.69 316.218L225.515 315.987L225.282 315.755L225.049 315.524L224.816 315.292L224.525 315.119L224.234 314.945L223.943 314.772L223.593 314.598L223.244 314.425L222.895 314.251L222.545 314.136L222.196 314.02L221.846 313.904L221.439 313.789L221.031 313.673L220.623 313.615L220.215 313.557L219.808 313.499L219.4 313.442L218.992 313.384H218.585H218.177H217.769H217.362H216.954H216.546L216.139 313.442L215.731 313.499L215.323 313.557L214.916 313.615L214.508 313.673L214.1 313.789L213.692 313.904L213.343 314.02L212.994 314.136L212.644 314.251L212.295 314.425L211.945 314.598L211.596 314.772L211.305 314.945L211.013 315.119L210.722 315.292L210.489 315.524L210.256 315.755L210.023 315.987L209.849 316.218L209.674 316.449L209.499 316.681L209.383 316.912L207.286 320.961C206.179 323.101 207.111 325.472 210.023 327.15C214.391 329.579 221.264 329.579 225.515 327.15Z" fill="white" stroke="#000F3E" stroke-width="0.5" stroke-miterlimit="10"/>
<path fill-rule="evenodd" clip-rule="evenodd" d="M228.603 321.944C228.544 321.597 228.428 321.308 228.253 320.961L226.157 316.912L226.04 316.681L225.865 316.449L225.691 316.218L225.516 315.987L225.283 315.755L225.05 315.524L224.817 315.292L224.526 315.119L224.235 314.945L223.943 314.772L223.594 314.598L223.245 314.425L222.895 314.251L222.546 314.136L222.196 314.02L221.847 313.904L221.439 313.789L221.031 313.673L220.624 313.615L220.216 313.557L219.808 313.499L219.401 313.442L218.993 313.384H218.585H218.178H217.77H217.362H216.954H216.547L216.139 313.442L215.731 313.499L215.324 313.557L214.916 313.615L214.508 313.673L214.101 313.789L213.693 313.904L213.344 314.02L212.994 314.136L212.645 314.251L212.295 314.425L211.946 314.598L211.596 314.772L211.305 314.945L211.014 315.119L210.723 315.292L210.49 315.524L210.257 315.755L210.024 315.987L209.849 316.218L209.674 316.449L209.5 316.681L209.383 316.912L207.286 320.961C207.112 321.308 206.995 321.597 206.937 321.944C207.228 323.274 208.277 324.547 210.024 325.588C214.275 328.017 221.148 328.017 225.399 325.588C227.321 324.547 228.311 323.274 228.603 321.944Z" fill="white" stroke="#000F3E" stroke-width="0.5" stroke-miterlimit="10"/>
<path fill-rule="evenodd" clip-rule="evenodd" d="M224.058 322.696C227.495 320.73 227.495 317.491 224.058 315.524C220.622 313.558 215.031 313.558 211.595 315.524C208.159 317.491 208.159 320.73 211.595 322.696C215.031 324.663 220.622 324.663 224.058 322.696Z" fill="white" stroke="#000F3E" stroke-width="0.5" stroke-miterlimit="10"/>
<path fill-rule="evenodd" clip-rule="evenodd" d="M228.837 315.872V319.631L228.779 319.978L228.721 320.267L228.662 320.557L228.546 320.846L228.371 321.135L228.196 321.424L228.022 321.713L227.847 322.003L227.556 322.292L227.323 322.581L227.032 322.812L226.74 323.101L226.391 323.333L225.983 323.564L225.634 323.796L225.226 324.027L224.76 324.258L224.352 324.432L223.887 324.605L223.421 324.779L222.955 324.952L222.489 325.068L221.965 325.184L221.499 325.299L220.974 325.415L220.45 325.473L219.926 325.531L219.402 325.589L218.878 325.646H218.354H217.829H217.305H216.781L216.257 325.589L215.733 325.531L215.209 325.473L214.684 325.415L214.219 325.299L213.694 325.184L213.228 325.068L212.704 324.952L212.238 324.779L211.772 324.605L211.306 324.432L210.899 324.258L210.491 324.027L210.083 323.796L209.676 323.564L209.326 323.333L208.977 323.101L208.627 322.812L208.336 322.581L208.103 322.292L207.87 322.003L207.637 321.713L207.463 321.424L207.288 321.135L207.171 320.846L207.055 320.557L206.938 320.267L206.88 319.978L206.822 319.631V315.872L206.88 316.161L206.938 316.45L207.055 316.739L207.171 317.028L207.288 317.375L207.463 317.665L207.637 317.954L207.87 318.185L208.103 318.474L208.336 318.764L208.627 319.053L208.977 319.284L209.326 319.515L209.676 319.805L210.083 320.036L210.491 320.21L210.899 320.441L211.306 320.614L211.772 320.846L212.238 320.961L212.704 321.135L213.228 321.251L213.694 321.424L214.219 321.482L214.684 321.598L215.209 321.656L215.733 321.771H216.257L216.781 321.829H217.305L217.829 321.887L218.354 321.829H218.878L219.402 321.771H219.926L220.45 321.656L220.974 321.598L221.499 321.482L221.965 321.424L222.489 321.251L222.955 321.135L223.421 320.961L223.887 320.846L224.352 320.614L224.76 320.441L225.226 320.21L225.634 320.036L225.983 319.805L226.391 319.515L226.74 319.284L227.032 319.053L227.323 318.764L227.556 318.474L227.847 318.185L228.022 317.954L228.196 317.665L228.371 317.375L228.546 317.028L228.662 316.739L228.721 316.45L228.779 316.161L228.837 315.872Z" fill="white" stroke="#000F3E" stroke-width="0.5" stroke-miterlimit="10"/>
<path fill-rule="evenodd" clip-rule="evenodd" d="M228.837 315.872V319.631L228.779 319.978L228.721 320.267L228.662 320.557L228.546 320.846L228.371 321.135L228.196 321.424L228.022 321.713L227.847 322.003L227.556 322.292L227.323 322.581L227.032 322.812L226.74 323.101L226.391 323.333L225.983 323.564L225.634 323.796L225.226 324.027L224.76 324.258L224.352 324.432L223.887 324.605L223.421 324.779L222.955 324.952L222.489 325.068L221.965 325.184L221.499 325.299L220.974 325.415L220.45 325.473L219.926 325.531L219.402 325.589L218.878 325.646H218.354H217.829H217.305H216.781L216.257 325.589L215.733 325.531L215.209 325.473L214.684 325.415L214.219 325.299L213.694 325.184L213.228 325.068L212.704 324.952L212.238 324.779L211.772 324.605L211.306 324.432L210.899 324.258L210.491 324.027L210.083 323.796L209.676 323.564L209.326 323.333L208.977 323.101L208.627 322.812L208.336 322.581L208.103 322.292L207.87 322.003L207.637 321.713L207.463 321.424L207.288 321.135L207.171 320.846L207.055 320.557L206.938 320.267L206.88 319.978L206.822 319.631V315.872L206.88 316.161L206.938 316.45L207.055 316.739L207.171 317.028L207.288 317.375L207.463 317.665L207.637 317.954L207.87 318.185L208.103 318.474L208.336 318.764L208.627 319.053L208.977 319.284L209.326 319.515L209.676 319.805L210.083 320.036L210.491 320.21L210.899 320.441L211.306 320.614L211.772 320.846L212.238 320.961L212.704 321.135L213.228 321.251L213.694 321.424L214.219 321.482L214.684 321.598L215.209 321.656L215.733 321.771H216.257L216.781 321.829H217.305L217.829 321.887L218.354 321.829H218.878L219.402 321.771H219.926L220.45 321.656L220.974 321.598L221.499 321.482L221.965 321.424L222.489 321.251L222.955 321.135L223.421 320.961L223.887 320.846L224.352 320.614L224.76 320.441L225.226 320.21L225.634 320.036L225.983 319.805L226.391 319.515L226.74 319.284L227.032 319.053L227.323 318.764L227.556 318.474L227.847 318.185L228.022 317.954L228.196 317.665L228.371 317.375L228.546 317.028L228.662 316.739L228.721 316.45L228.779 316.161L228.837 315.872Z" fill="white" stroke="#000F3E" stroke-width="0.5" stroke-miterlimit="10"/>
<path fill-rule="evenodd" clip-rule="evenodd" d="M228.837 315.872V318.185L228.779 318.474L228.721 318.764L228.662 319.053L228.546 319.342L228.371 319.689L228.196 319.978L228.022 320.267L227.847 320.499L227.556 320.788L227.323 321.077L227.032 321.366L226.74 321.598L226.391 321.829L225.983 322.118L225.634 322.35L225.226 322.523L224.76 322.754L224.352 322.928L223.887 323.159L223.421 323.275L222.955 323.449L222.489 323.564L221.965 323.738L221.499 323.796L220.974 323.911L220.45 323.969L219.926 324.085H219.402L218.878 324.143H218.354L217.829 324.2L217.305 324.143H216.781L216.257 324.085H215.733L215.209 323.969L214.684 323.911L214.219 323.796L213.694 323.738L213.228 323.564L212.704 323.449L212.238 323.275L211.772 323.159L211.306 322.928L210.899 322.754L210.491 322.523L210.083 322.35L209.676 322.118L209.326 321.829L208.977 321.598L208.627 321.366L208.336 321.077L208.103 320.788L207.87 320.499L207.637 320.267L207.463 319.978L207.288 319.689L207.171 319.342L207.055 319.053L206.938 318.764L206.88 318.474L206.822 318.185V315.872L206.88 316.161L206.938 316.45L207.055 316.739L207.171 317.028L207.288 317.375L207.463 317.665L207.637 317.954L207.87 318.185L208.103 318.474L208.336 318.764L208.627 319.053L208.977 319.284L209.326 319.515L209.676 319.805L210.083 320.036L210.491 320.21L210.899 320.441L211.306 320.614L211.772 320.846L212.238 320.961L212.704 321.135L213.228 321.251L213.694 321.424L214.219 321.482L214.684 321.598L215.209 321.656L215.733 321.771H216.257L216.781 321.829H217.305L217.829 321.887L218.354 321.829H218.878L219.402 321.771H219.926L220.45 321.656L220.974 321.598L221.499 321.482L221.965 321.424L222.489 321.251L222.955 321.135L223.421 320.961L223.887 320.846L224.352 320.614L224.76 320.441L225.226 320.21L225.634 320.036L225.983 319.805L226.391 319.515L226.74 319.284L227.032 319.053L227.323 318.764L227.556 318.474L227.847 318.185L228.022 317.954L228.196 317.665L228.371 317.375L228.546 317.028L228.662 316.739L228.721 316.45L228.779 316.161L228.837 315.872Z" fill="white" stroke="#000F3E" stroke-width="0.5" stroke-miterlimit="10"/>
<path fill-rule="evenodd" clip-rule="evenodd" d="M228.836 315.871V318.358C226.507 320.614 223.245 321.829 218.003 321.829C217.945 321.829 217.887 321.829 217.829 321.829H218.353H218.877L219.401 321.771L219.925 321.713L220.45 321.655L220.974 321.597L221.498 321.482L222.022 321.366L222.488 321.25L222.954 321.135L223.42 320.961L223.886 320.787L224.352 320.614L224.818 320.44L225.225 320.209L225.633 319.978L226.041 319.746L226.39 319.515L226.74 319.284L227.031 319.052L227.322 318.763L227.613 318.474L227.846 318.185L228.079 317.895L228.254 317.606L228.429 317.317L228.545 317.028L228.662 316.739L228.778 316.449L228.836 316.16V315.871ZM206.821 318.358V315.871L206.879 316.16L206.938 316.449L207.054 316.739L207.171 317.028L207.287 317.317L207.462 317.606L207.637 317.895L207.87 318.185L208.102 318.474L208.394 318.763L208.685 319.052L208.976 319.284L209.326 319.515L209.675 319.746L210.083 319.978L210.49 320.209L210.898 320.44L211.364 320.614L211.83 320.787L212.296 320.961L212.762 321.135L213.228 321.25L213.694 321.366L214.218 321.482L214.742 321.597L215.266 321.655L215.79 321.713L216.314 321.771L216.839 321.829H217.363H217.887C212.529 321.886 209.209 320.672 206.821 318.358Z" fill="#94E0E0"/>
<path fill-rule="evenodd" clip-rule="evenodd" d="M239.959 280.647C243.046 290.249 239.668 296.842 236.232 302.742C234.018 306.444 232.504 306.964 231.281 311.186C230.582 313.731 230.932 316.45 228.777 318.359C225.399 321.424 221.846 322.349 218.235 322.407H217.827H217.42C213.809 322.292 210.256 321.424 206.878 318.359C204.723 316.392 205.131 313.731 204.374 311.186C203.151 306.964 201.636 306.444 199.423 302.742C195.929 296.842 192.609 290.306 195.696 280.647C198.841 270.757 208.334 265.84 217.827 265.84C227.321 265.783 236.814 270.757 239.959 280.647Z" fill="#94E0E0"/>
<path fill-rule="evenodd" clip-rule="evenodd" d="M215.382 282.151C207.519 283.076 201.229 287.935 198.375 294.066C197.851 293.198 197.444 292.273 197.152 291.058C194.881 280.763 203.326 270.005 215.382 268.674V282.151Z" fill="#AFF0F0"/>
</g>
<path fill-rule="evenodd" clip-rule="evenodd" d="M97.1481 127.009C96.9324 128.091 96.5011 129.173 95.962 130.147L95.7463 130.471L95.962 130.579C96.8246 131.229 97.3638 132.527 97.3638 134.15C97.3638 135.772 96.8246 137.612 95.962 139.126C95.4228 139.992 94.8836 140.749 94.2366 141.398C94.7758 142.156 94.9915 143.129 94.9915 144.319C94.9915 145.942 94.4523 147.781 93.5897 149.296C93.0505 150.162 92.5113 151.027 91.8644 151.568C92.4035 152.325 92.6192 153.299 92.6192 154.489C92.6192 156.112 92.08 157.951 91.2174 159.466C90.3547 160.981 89.1686 162.279 87.8746 162.928L79.6794 167.039C75.6897 169.095 72.7782 168.77 70.0824 168.446C67.9258 168.229 65.877 168.013 63.3969 168.987L61.7794 169.744V139.775L63.3969 139.018C65.5535 137.936 68.1415 136.205 70.1903 133.392C72.2391 130.688 73.6409 126.793 73.6409 121.383C73.6409 119.869 73.9644 118.462 74.6113 117.272C75.1505 116.082 75.9053 115.108 76.6601 114.459C77.415 113.81 78.2776 113.377 79.1403 113.269C79.7872 113.161 80.4342 113.269 80.9734 113.594L87.6589 116.948L87.5511 123.872L92.4035 121.491C93.5897 120.951 94.5601 120.951 95.4228 121.383L102.108 124.737L97.1481 127.009Z" fill="#94E0E0" stroke="#5FBDBD" stroke-miterlimit="10"/>
<path fill-rule="evenodd" clip-rule="evenodd" d="M70.407 142.696C72.5636 141.615 75.1516 139.884 77.2004 137.071C79.2492 134.366 80.651 130.471 80.651 125.062C80.651 123.547 80.9745 122.141 81.6215 120.95C82.1606 119.76 82.9154 118.787 83.6702 118.138C84.4251 117.488 85.2877 117.056 86.1504 116.947C87.2287 116.839 88.307 117.164 89.1696 118.246C90.0323 119.328 90.5715 121.059 90.6793 123.547C90.7871 125.17 90.6793 127.225 90.3558 129.714L99.4136 125.17C100.708 124.521 101.786 124.629 102.649 125.278H102.756C103.619 125.927 104.158 127.225 104.158 128.848C104.158 130.471 103.619 132.31 102.756 133.825L102.541 134.15L102.756 134.258C103.619 134.907 104.158 136.205 104.158 137.828C104.158 139.451 103.619 141.29 102.756 142.805C102.217 143.67 101.678 144.536 101.031 145.077C101.57 145.834 101.786 146.808 101.786 147.998C101.786 149.621 101.247 151.46 100.384 152.974C99.8449 153.84 99.3058 154.705 98.6588 155.246C99.198 156.004 99.4136 156.977 99.4136 158.168C99.4136 159.79 98.8745 161.63 98.0118 163.144C97.1492 164.659 95.963 165.957 94.669 166.606L86.4739 170.717C82.4841 172.773 79.5727 172.449 76.8769 172.124C74.7202 171.908 72.6714 171.691 70.1913 172.665L68.5739 173.422V143.454L70.407 142.696Z" fill="#94E0E0" stroke="#5FBDBD" stroke-miterlimit="10"/>
<path fill-rule="evenodd" clip-rule="evenodd" d="M69.3297 140.966L57.4682 146.916V180.347L69.3297 174.396V140.966Z" fill="#94E0E0" stroke="#5FBDBD" stroke-miterlimit="10"/>
<path fill-rule="evenodd" clip-rule="evenodd" d="M62.9674 167.796C64.1535 167.147 65.2318 168.013 65.2318 169.527C65.2318 171.15 64.2613 172.881 62.9674 173.53C61.7812 174.179 60.7029 173.314 60.7029 171.799C60.7029 170.285 61.7812 168.337 62.9674 167.796Z" fill="#94E0E0" stroke="#5FBDBD" stroke-miterlimit="10"/>
<path fill-rule="evenodd" clip-rule="evenodd" d="M50.7827 143.67L57.4682 146.916L69.3297 140.966L62.6441 137.828L50.7827 143.67Z" fill="#94E0E0" stroke="#5FBDBD" stroke-miterlimit="10"/>
<path fill-rule="evenodd" clip-rule="evenodd" d="M57.467 180.347L50.7815 177.101V143.67L57.467 146.916V180.347Z" fill="#94E0E0" stroke="#5FBDBD" stroke-miterlimit="10"/>
<rect x="0.890101" width="77.5557" height="77.5557" transform="matrix(0.890101 -0.455763 0.890101 0.455763 150.098 635.556)" fill="white" stroke="#EAECF5"/>
<path d="M220.041 670.698L289.715 635.21V698.999L220.041 735.633V670.698Z" fill="url(#paint8_linear)"/>
<path d="M220.041 670.698L289.715 635.21V698.999L220.041 735.633V670.698Z" fill="white"/>
<path d="M220.041 670.698L289.715 635.21V698.999L220.041 735.633V670.698Z" fill="url(#paint9_linear)" fill-opacity="0.8"/>
<path d="M219.905 670.905L150.229 635.21V698.828L219.905 734.259V670.905Z" fill="url(#paint10_linear)"/>
<path d="M219.905 670.905L150.229 635.21V698.828L219.905 734.259V670.905Z" fill="white"/>
<path d="M219.905 670.905L150.229 635.21V698.828L219.905 734.259V670.905Z" fill="url(#paint11_linear)" fill-opacity="0.8"/>
<g clip-path="url(#clip1)">
<path d="M239.615 598.581L234.092 601.774V603.37C234.092 606.024 232.248 609.217 229.955 610.544C228.42 611.432 227.084 611.243 226.367 610.225L229.267 608.549L225.818 606.553L220.296 609.746V616.122L218.92 616.92C216.627 618.247 214.783 621.45 214.783 624.094C214.783 625.371 215.212 626.279 215.909 626.728L215.939 626.748C215.979 626.768 216.009 626.788 216.049 626.808L219.558 628.834L220.306 627.706V632.067L223.755 634.062L225.12 629.283L235.478 623.296C237.761 621.979 239.615 618.766 239.615 616.122V602.572L243.064 600.576L239.615 598.581Z" fill="white" stroke="#000F3E" stroke-width="0.427177" stroke-miterlimit="10"/>
<path d="M238.927 625.292C241.21 623.975 243.064 620.762 243.064 618.118V600.577L237.541 603.77V605.366C237.541 608.02 235.697 611.213 233.404 612.54C231.112 613.867 229.267 612.8 229.267 610.146V608.549L223.745 611.742V618.118L222.369 618.916C220.076 620.243 218.232 623.436 218.232 626.09C218.232 628.744 220.076 629.802 222.369 628.485L223.745 627.687V634.063L238.927 625.292Z" fill="white" stroke="#000F3E" stroke-width="0.427177" stroke-miterlimit="10"/>
<path d="M205.543 612.36C205.005 612.37 204.387 612.56 203.749 612.929C201.456 614.256 199.612 617.449 199.612 620.103V621.699L194.089 624.892V642.433C194.089 643.741 194.558 644.718 195.375 645.147L199.064 647.253C198.984 647.233 199.313 645.786 199.771 643.93L209.172 638.492L213.408 636.048V634.73L216.857 631.667L213.408 629.672L212.033 630.47C209.74 631.797 207.896 630.729 207.896 628.075C207.896 625.421 209.74 622.228 212.033 620.901L213.408 620.103V619.424L216.857 615.723L213.408 613.727L209.471 616.002L210.169 614.655L206.859 612.749C206.739 612.659 206.61 612.589 206.48 612.53L206.47 612.52C206.181 612.41 205.882 612.35 205.543 612.36Z" fill="white" stroke="#000F3E" stroke-width="0.427177" stroke-miterlimit="10"/>
<path d="M197.546 644.419C197.546 647.064 199.4 648.131 201.683 646.814L216.855 638.043V631.668L215.479 632.466C213.187 633.793 211.342 632.725 211.342 630.071C211.342 627.417 213.187 624.224 215.479 622.897L216.855 622.099V615.723L211.332 618.916V617.319C211.332 614.665 209.488 613.608 207.195 614.925C204.903 616.252 203.059 619.445 203.059 622.099V623.695L197.536 626.888L197.546 644.419Z" fill="white" stroke="#000F3E" stroke-width="0.427177" stroke-miterlimit="10"/>
<path d="M237.351 570.113C236.773 570.103 236.125 570.303 235.477 570.682L220.305 579.452V585.828L223.754 587.824V584.471C224.99 584.581 225.817 585.649 225.817 587.425C225.817 590.079 223.973 593.272 221.68 594.599L220.305 595.397V601.773L223.754 603.769L225.817 599.638V600.177C225.817 601.484 226.266 602.412 227.004 602.851L227.024 602.861L227.034 602.871L230.682 604.966L231.629 601.204C233.084 599.628 234.101 597.363 234.101 595.397V593.801L239.624 590.608V575.132L241.857 572.388L238.368 570.373C238.368 570.373 238.368 570.373 238.358 570.373H238.348C238.049 570.203 237.72 570.113 237.351 570.113Z" fill="#5FBDBD"/>
<path d="M243.064 575.062C243.064 572.417 241.209 571.35 238.927 572.667L223.754 581.438V587.813L225.13 587.015C227.423 585.688 229.267 586.756 229.267 589.41C229.267 592.064 227.423 595.257 225.13 596.584L223.754 597.382V603.758L229.277 600.565V602.162C229.277 604.816 231.121 605.874 233.414 604.556C235.707 603.229 237.551 600.036 237.551 597.382V595.786L243.074 592.593V575.062H243.064Z" fill="#94E0E0"/>
<path d="M213.408 583.434L198.226 592.204C195.943 593.521 194.089 596.734 194.089 599.378V616.91L197.538 618.905L205.912 604.407C207.098 604.557 207.886 605.615 207.886 607.351V608.947L211.335 610.943L212.132 606.493L213.398 605.754V599.378L214.774 598.58C215.572 598.121 216.309 597.433 216.937 596.624L216.947 596.614C217.186 596.305 217.406 595.986 217.605 595.647L221.034 590.638L217.974 588.902C217.805 588.762 217.605 588.652 217.396 588.572C216.678 588.313 215.781 588.433 214.784 589.001L216.848 585.419L213.408 583.434Z" fill="white" stroke="#000F3E" stroke-width="0.427177" stroke-miterlimit="10"/>
<path d="M201.683 594.2C199.43 595.527 197.606 598.73 197.546 601.374V618.905L203.069 615.712V614.116C203.069 611.462 204.913 608.269 207.206 606.942C209.499 605.615 211.343 606.682 211.343 609.336V610.933L216.865 607.74V601.374L218.241 600.576C220.534 599.249 222.378 596.056 222.378 593.402C222.378 590.747 220.534 589.69 218.241 591.007L216.865 591.805V585.429L201.683 594.2Z" fill="white" stroke="#000F3E" stroke-width="0.427177" stroke-miterlimit="10"/>
</g>
<rect x="0.890101" width="77.1106" height="77.1106" transform="matrix(0.890101 -0.455763 0.890101 0.455763 0.0978211 485.026)" fill="white" stroke="#EAECF5"/>
<path d="M69.6442 519.967L138.923 484.68V548.107L69.6442 584.533V519.967Z" fill="url(#paint12_linear)"/>
<path d="M69.6442 519.967L138.923 484.68V548.107L69.6442 584.533V519.967Z" fill="white"/>
<path d="M69.6442 519.967L138.923 484.68V548.107L69.6442 584.533V519.967Z" fill="url(#paint13_linear)" fill-opacity="0.8"/>
<path d="M69.5093 520.172L0.227806 484.68V547.937L69.5093 583.167V520.172Z" fill="url(#paint14_linear)"/>
<path d="M69.5093 520.172L0.227806 484.68V547.937L69.5093 583.167V520.172Z" fill="white"/>
<path d="M69.5093 520.172L0.227806 484.68V547.937L69.5093 583.167V520.172Z" fill="url(#paint15_linear)" fill-opacity="0.8"/>
<g clip-path="url(#clip2)">
<path fill-rule="evenodd" clip-rule="evenodd" d="M79.1111 456.709L80.1899 453.736L86.7554 435.343L89.1597 428.58L90.3927 425.103L92.2113 419.756L94.3689 420.763L94.3998 420.787L94.5539 420.883L89.3138 435.75L81.2071 458.388L79.1111 456.709ZM103 409.948L90.5159 418.149L87.8959 416.902L100.503 408.869L103 409.948Z" fill="#5FBDBD"/>
<path fill-rule="evenodd" clip-rule="evenodd" d="M82.04 467.271L79.7898 466.215L74.2415 461.755L74.5498 460.868L83.0572 467.75L82.04 467.271ZM91.318 418.533L94.3387 421.026L92.1502 419.971L87.8657 416.902L90.4549 417.981L91.318 418.533ZM98.4691 425.127L98.7466 424.36L103 427.645L100.164 426.326L98.4691 425.127Z" fill="#69A1AC"/>
<path fill-rule="evenodd" clip-rule="evenodd" d="M96.188 431.458L83.6735 466.325L83.057 468.076L74.5496 461.193L74.2414 462.081L63.5146 491.72L59.4151 493.567L54.2983 495.893L70.7583 449.947L81.1151 457.932L89.3143 435.055H89.2835L94.3386 421.003L93.5988 420.427L93.4447 420.331L93.4139 420.307L90.5781 418.077L102.969 409.948V420.787V427.693V427.669L98.7156 424.384L98.4382 425.151L96.188 431.458Z" fill="#94E0E0"/>
<path fill-rule="evenodd" clip-rule="evenodd" d="M54.329 495.773L51 494.262L67.46 448.556L67.4908 448.436L67.7066 448.532L70.7582 449.971L54.329 495.773Z" fill="#5FBDBD"/>
</g>
<defs>
<linearGradient id="paint0_linear" x1="91.3275" y1="174.748" x2="122.568" y2="275.937" gradientUnits="userSpaceOnUse">
<stop stop-color="#EAECF5"/>
<stop offset="0.619792" stop-color="#EAECF5" stop-opacity="0"/>
</linearGradient>
<linearGradient id="paint1_linear" x1="106" y1="182" x2="113.962" y2="283.094" gradientUnits="userSpaceOnUse">
<stop stop-color="#D0D4EA"/>
<stop offset="0.557292" stop-color="#CED3ED" stop-opacity="0"/>
</linearGradient>
<linearGradient id="paint2_linear" x1="50.4133" y1="174.824" x2="4.85629" y2="303.233" gradientUnits="userSpaceOnUse">
<stop stop-color="#EAECF5"/>
<stop offset="0.619792" stop-color="#EAECF5" stop-opacity="0"/>
</linearGradient>
<linearGradient id="paint3_linear" x1="41.7784" y1="188.542" x2="14.8602" y2="281.009" gradientUnits="userSpaceOnUse">
<stop stop-color="#D0D4EA"/>
<stop offset="0.557292" stop-color="#CED3ED" stop-opacity="0"/>
</linearGradient>
<linearGradient id="paint4_linear" x1="240.158" y1="331.854" x2="271.375" y2="432.968" gradientUnits="userSpaceOnUse">
<stop stop-color="#EAECF5"/>
<stop offset="0.619792" stop-color="#EAECF5" stop-opacity="0"/>
</linearGradient>
<linearGradient id="paint5_linear" x1="255" y1="334.5" x2="274.981" y2="438.815" gradientUnits="userSpaceOnUse">
<stop stop-color="#D0D4EA"/>
<stop offset="0.557292" stop-color="#CED3ED" stop-opacity="0"/>
</linearGradient>
<linearGradient id="paint6_linear" x1="199.274" y1="331.93" x2="153.751" y2="460.243" gradientUnits="userSpaceOnUse">
<stop stop-color="#EAECF5"/>
<stop offset="0.619792" stop-color="#EAECF5" stop-opacity="0"/>
</linearGradient>
<linearGradient id="paint7_linear" x1="190.646" y1="345.638" x2="163.748" y2="438.035" gradientUnits="userSpaceOnUse">
<stop stop-color="#D0D4EA"/>
<stop offset="0.557292" stop-color="#CED3ED" stop-opacity="0"/>
</linearGradient>
<linearGradient id="paint8_linear" x1="240.546" y1="640.851" x2="271.518" y2="741.174" gradientUnits="userSpaceOnUse">
<stop stop-color="#EAECF5"/>
<stop offset="0.619792" stop-color="#EAECF5" stop-opacity="0"/>
</linearGradient>
<linearGradient id="paint9_linear" x1="255" y1="646.5" x2="275.32" y2="747.013" gradientUnits="userSpaceOnUse">
<stop stop-color="#D0D4EA"/>
<stop offset="0.557292" stop-color="#CED3ED" stop-opacity="0"/>
</linearGradient>
<linearGradient id="paint10_linear" x1="199.982" y1="640.926" x2="154.815" y2="768.236" gradientUnits="userSpaceOnUse">
<stop stop-color="#EAECF5"/>
<stop offset="0.619792" stop-color="#EAECF5" stop-opacity="0"/>
</linearGradient>
<linearGradient id="paint11_linear" x1="191.421" y1="654.527" x2="164.733" y2="746.202" gradientUnits="userSpaceOnUse">
<stop stop-color="#D0D4EA"/>
<stop offset="0.557292" stop-color="#CED3ED" stop-opacity="0"/>
</linearGradient>
<linearGradient id="paint12_linear" x1="90.0325" y1="490.289" x2="120.83" y2="590.043" gradientUnits="userSpaceOnUse">
<stop stop-color="#EAECF5"/>
<stop offset="0.619792" stop-color="#EAECF5" stop-opacity="0"/>
</linearGradient>
<linearGradient id="paint13_linear" x1="104" y1="495" x2="124.54" y2="595.874" gradientUnits="userSpaceOnUse">
<stop stop-color="#D0D4EA"/>
<stop offset="0.557292" stop-color="#CED3ED" stop-opacity="0"/>
</linearGradient>
<linearGradient id="paint14_linear" x1="49.6985" y1="490.364" x2="4.78744" y2="616.952" gradientUnits="userSpaceOnUse">
<stop stop-color="#EAECF5"/>
<stop offset="0.619792" stop-color="#EAECF5" stop-opacity="0"/>
</linearGradient>
<linearGradient id="paint15_linear" x1="41.186" y1="503.887" x2="14.6495" y2="595.043" gradientUnits="userSpaceOnUse">
<stop stop-color="#D0D4EA"/>
<stop offset="0.557292" stop-color="#CED3ED" stop-opacity="0"/>
</linearGradient>
<clipPath id="clip0">
<rect width="100" height="121" fill="white" transform="translate(169.371 246.869)"/>
</clipPath>
<clipPath id="clip1">
<rect width="49.1253" height="77.319" fill="white" transform="translate(194.039 570.112)"/>
</clipPath>
<clipPath id="clip2">
<rect width="52" height="87" fill="white" transform="translate(51 408.869)"/>
</clipPath>
</defs>
</svg>
