<svg width="20" height="9" viewBox="0 0 20 9" fill="none" xmlns="http://www.w3.org/2000/svg">
<path d="M6.04012 7.39527L4.8945 8.57005L0.836926 4.40417L4.89533 0.238281L6.04012 1.41306L3.94468 3.57099H20V5.23734H3.94551L6.04012 7.39527Z" fill="#80879F"/>
</svg>
