<svg xmlns="http://www.w3.org/2000/svg" width="276" height="80" viewBox="0 0 276 80">
  <text id="appendix" transform="translate(138 65)" fill="#e45785" font-size="60" font-family="SegoeUI, Segoe UI"><tspan x="-137.285" y="0">APPENDIX</tspan></text>
</svg>
