<svg xmlns="http://www.w3.org/2000/svg" xmlns:xlink="http://www.w3.org/1999/xlink" width="16" height="12.001" viewBox="0 0 16 12.001">
  <defs>
    <clipPath id="clip-path">
      <path id="Path_15097" data-name="Path 15097" d="M-80.182,0h16V12h-16Z" fill="rgba(0,0,0,0.7)"/>
    </clipPath>
  </defs>
  <g id="gb" transform="translate(80.182)" clip-path="url(#clip-path)">
    <g id="Group_7809" data-name="Group 7809" transform="translate(-84.183)">
      <path id="Path_15093" data-name="Path 15093" d="M-240.64,0h24V12h-24Z" transform="translate(240.64)" fill="#006"/>
      <path id="Path_15094" data-name="Path 15094" d="M-240.64,0V1.341L-219.322,12h2.684V10.66L-237.956,0Zm24,0V1.341L-237.956,12h-2.684V10.66L-219.322,0Z" transform="translate(240.64)" fill="#fff"/>
      <path id="Path_15095" data-name="Path 15095" d="M-230.638,0V12h4V0Zm-10,4V8h24V4Z" transform="translate(240.64)" fill="#fff"/>
      <path id="Path_15096" data-name="Path 15096" d="M-240.64,4.8V7.2h24V4.8Zm10.8-4.8V12h2.4V0Zm-10.8,12,8-4h1.791l-8,4Zm0-12,8,4h-1.788L-240.64.9Zm14.214,4,8-4h1.788l-8,4Zm9.788,8-8-4h1.788l6.212,3.106Z" transform="translate(240.64)" fill="#c00"/>
    </g>
  </g>
</svg>
