<svg xmlns="http://www.w3.org/2000/svg" width="57.562" height="44.87" viewBox="0 0 57.562 44.87">
  <g id="Group_7839" data-name="Group 7839" transform="translate(-320.336 -291)">
    <path id="Path_15124" data-name="Path 15124" d="M507.806,434.445a.786.786,0,0,1,.344.284.77.77,0,0,1,.133.435v20.2a.775.775,0,0,1-.061.3.786.786,0,0,1-.284.344.77.77,0,0,1-.435.133h-31.28a.774.774,0,0,1-.3-.061.787.787,0,0,1-.344-.284.771.771,0,0,1-.133-.435v-20.2a.772.772,0,0,1,.061-.3.787.787,0,0,1,.284-.344.771.771,0,0,1,.435-.133H507.5a.774.774,0,0,1,.3.061Zm-19.534,23.538h7.183m1.842,0H507.5a2.621,2.621,0,0,0,2.622-2.622v-20.2a2.621,2.621,0,0,0-2.622-2.622h-31.28a2.622,2.622,0,0,0-2.622,2.622v20.2a2.621,2.621,0,0,0,2.622,2.622h10.207" transform="translate(-132.226 -122.112)" fill="#474747"/>
    <path id="Path_15125" data-name="Path 15125" d="M677.657,503.5a1.014,1.014,0,0,1-.864.558,1.027,1.027,0,0,1-.869-.553,3.075,3.075,0,0,1-.356-1.647,3.194,3.194,0,0,1,.356-1.7,1.028,1.028,0,0,1,.869-.547.884.884,0,0,1,.471.135,1.16,1.16,0,0,1,.382.412,2.542,2.542,0,0,1,.262.693,4.318,4.318,0,0,1,.1.99,3.167,3.167,0,0,1-.351,1.663Zm.821-4.253a2.085,2.085,0,0,0-1.716-.87,2.049,2.049,0,0,0-.921.214,2.106,2.106,0,0,0-.754.646,3.261,3.261,0,0,0-.5,1.089,5.768,5.768,0,0,0-.182,1.533,5.314,5.314,0,0,0,.187,1.486,3.287,3.287,0,0,0,.515,1.074,2.189,2.189,0,0,0,.765.652,2.061,2.061,0,0,0,.936.219,2.008,2.008,0,0,0,.921-.219,2.142,2.142,0,0,0,.754-.657,3.413,3.413,0,0,0,.51-1.084,5.371,5.371,0,0,0,.187-1.491,5.473,5.473,0,0,0-.187-1.506,3.347,3.347,0,0,0-.51-1.084Z" transform="translate(-305.462 -178.913)" fill="#474747"/>
    <path id="Path_15126" data-name="Path 15126" d="M598.8,499.444a.582.582,0,0,0-.521.25l-.917,1.282a.647.647,0,0,0-.115.375.622.622,0,0,0,.172.443.546.546,0,0,0,.412.182.662.662,0,0,0,.365-.115v3.576a.548.548,0,0,0,.615.626.558.558,0,0,0,.636-.626v-5.327a.632.632,0,0,0-.193-.49.648.648,0,0,0-.453-.177Z" transform="translate(-238.895 -179.831)" fill="#474747"/>
    <path id="Path_15127" data-name="Path 15127" d="M636.388,499.444a.582.582,0,0,0-.521.25l-.917,1.282a.646.646,0,0,0-.115.375.622.622,0,0,0,.172.443.545.545,0,0,0,.412.182.663.663,0,0,0,.365-.115v3.576a.548.548,0,0,0,.615.626.558.558,0,0,0,.636-.626v-5.327a.632.632,0,0,0-.193-.49.648.648,0,0,0-.453-.177Z" transform="translate(-271.327 -179.831)" fill="#474747"/>
    <path id="Path_15128" data-name="Path 15128" d="M507.24,503.5a1.014,1.014,0,0,1-.864.558,1.027,1.027,0,0,1-.869-.553,3.076,3.076,0,0,1-.356-1.647,3.2,3.2,0,0,1,.356-1.7,1.028,1.028,0,0,1,.869-.547.885.885,0,0,1,.471.135,1.161,1.161,0,0,1,.382.412,2.539,2.539,0,0,1,.262.693,4.315,4.315,0,0,1,.1.99,3.166,3.166,0,0,1-.351,1.663Zm.821-4.253a2.085,2.085,0,0,0-1.716-.87,2.049,2.049,0,0,0-.921.214,2.106,2.106,0,0,0-.754.646,3.265,3.265,0,0,0-.5,1.089,5.767,5.767,0,0,0-.182,1.533,5.323,5.323,0,0,0,.187,1.486,3.286,3.286,0,0,0,.515,1.074,2.188,2.188,0,0,0,.765.652,2.061,2.061,0,0,0,.936.219,2.008,2.008,0,0,0,.921-.219,2.142,2.142,0,0,0,.754-.657,3.417,3.417,0,0,0,.51-1.084,5.373,5.373,0,0,0,.187-1.491,5.474,5.474,0,0,0-.187-1.506,3.35,3.35,0,0,0-.51-1.084Z" transform="translate(-158.438 -178.913)" fill="#474747"/>
    <path id="Path_15129" data-name="Path 15129" d="M561.2,499.444a.581.581,0,0,0-.521.25l-.917,1.282a.646.646,0,0,0-.115.375.622.622,0,0,0,.172.443.546.546,0,0,0,.412.182.663.663,0,0,0,.365-.115v3.576a.548.548,0,0,0,.615.626.558.558,0,0,0,.636-.626v-5.327a.632.632,0,0,0-.193-.49.649.649,0,0,0-.454-.177Z" transform="translate(-206.463 -179.831)" fill="#474747"/>
    <g id="Group_7836" data-name="Group 7836" transform="translate(325.392 297.241)">
      <path id="Path_15130" data-name="Path 15130" d="M404.513,336.461H392.021a.921.921,0,1,0,0,1.842h12.492a.921.921,0,0,0,0-1.842Z" transform="translate(-386.442 -336.461)" fill="#474747"/>
      <path id="Path_15131" data-name="Path 15131" d="M404.513,376.956H392.021a.921.921,0,1,0,0,1.842h12.492a.921.921,0,1,0,0-1.842Z" transform="translate(-386.442 -371.397)" fill="#474747"/>
      <path id="Path_15132" data-name="Path 15132" d="M358.088,338.808a.921.921,0,1,0,.921.921.921.921,0,0,0-.921-.921Z" transform="translate(-357.167 -338.486)" fill="#474747"/>
      <path id="Path_15133" data-name="Path 15133" d="M358.088,376.956a.921.921,0,1,0,.921.921.921.921,0,0,0-.921-.921Z" transform="translate(-357.167 -371.397)" fill="#474747"/>
      <path id="Path_15134" data-name="Path 15134" d="M358.088,420.956a.921.921,0,1,0,.921.921.921.921,0,0,0-.921-.921Z" transform="translate(-357.167 -409.357)" fill="#474747"/>
    </g>
    <g id="Group_7837" data-name="Group 7837" transform="translate(323.985 319.141)">
      <path id="Path_15135" data-name="Path 15135" d="M355.529,505.332a9.261,9.261,0,0,1-6.244-1.929c-1.687-1.46-2.48-3.663-2.357-6.548a.892.892,0,0,1,1.783.076c-.1,2.314.488,4.037,1.742,5.123,1.721,1.49,4.788,1.87,8.869,1.1a.892.892,0,0,1,.331,1.754A22.411,22.411,0,0,1,355.529,505.332Z" transform="translate(-346.916 -496.001)" fill="#474747"/>
    </g>
    <g id="Group_7838" data-name="Group 7838" transform="translate(332.027 322.366)">
      <path id="Path_15136" data-name="Path 15136" d="M406.81,529.795a.892.892,0,0,1-.706-1.437l3.253-4.214-3.55-3.077a.892.892,0,1,1,1.169-1.348l4.187,3.63a.892.892,0,0,1,.122,1.219l-3.768,4.881A.891.891,0,0,1,406.81,529.795Z" transform="translate(-405.5 -519.499)" fill="#474747"/>
    </g>
    <path id="Path_15137" data-name="Path 15137" d="M516.973,324.418a2.9,2.9,0,0,1,1.071.16,1.2,1.2,0,0,1,.581.46,1.664,1.664,0,0,1,.23.751q.04.451.04,1.031v.721a8.04,8.04,0,0,0,.29,2.292,3,3,0,0,0,1.191,1.612,3.209,3.209,0,0,0-1.191,1.622,7.81,7.81,0,0,0-.29,2.282v.4h1.3c0-.092,0-.183,0-.277q0-.68.05-1.251a3.82,3.82,0,0,1,.21-1,1.688,1.688,0,0,1,.471-.7,1.607,1.607,0,0,1,.831-.35.523.523,0,0,0,.39-.26.893.893,0,0,0,.13-.461.839.839,0,0,0-.12-.441.65.65,0,0,0-.4-.28,1.86,1.86,0,0,1-.811-.44,1.937,1.937,0,0,1-.47-.731,4.058,4.058,0,0,1-.22-.971,10.722,10.722,0,0,1-.06-1.181q0-.921-.07-1.7a3.453,3.453,0,0,0-.38-1.351,2.123,2.123,0,0,0-.961-.891,4.181,4.181,0,0,0-1.812-.32.56.56,0,0,0-.49.21.734.734,0,0,0-.15.431.7.7,0,0,0,.15.45A.587.587,0,0,0,516.973,324.418Z" transform="translate(-169.091 -27.725)" fill="#474747"/>
    <path id="Path_15138" data-name="Path 15138" d="M337.861,314.6h-14.9a.774.774,0,0,1-.3-.061.787.787,0,0,1-.344-.284.769.769,0,0,1-.133-.435v-20.2a.771.771,0,0,1,.061-.3.787.787,0,0,1,.284-.344.771.771,0,0,1,.435-.132h33.674a.773.773,0,0,1,.3.061.789.789,0,0,1,.344.284.772.772,0,0,1,.133.436v14.4h1.842v-14.4A2.621,2.621,0,0,0,356.632,291H322.958a2.621,2.621,0,0,0-2.622,2.622v20.2a2.621,2.621,0,0,0,2.622,2.622h14.9Z" fill="#474747"/>
    <path id="Path_15139" data-name="Path 15139" d="M396.911,421.45h-6.753a.93.93,0,1,0,0,1.842h6.753Z" transform="translate(-59.325 -112.543)" fill="#474747"/>
  </g>
</svg>
