<svg xmlns="http://www.w3.org/2000/svg" width="1367" height="770" viewBox="0 0 1367 770">
  <g id="Rectangle_15097" data-name="Rectangle 15097" stroke="#707070" stroke-width="1" style="mix-blend-mode: color;isolation: isolate">
    <rect width="1367" height="770" stroke="none"/>
    <rect x="0.5" y="0.5" width="1366" height="769" fill="none"/>
  </g>
</svg>
