<svg id="us" xmlns="http://www.w3.org/2000/svg" width="16" height="11" viewBox="0 0 16 11">
  <path id="Path_15057" data-name="Path 15057" d="M0,0H16V1H0ZM0,2H16V3H0ZM0,4H16V5H0ZM0,8H16V9H0ZM0,6H16V7H0Zm0,4H16v1H0Z" fill="#bd3d44"/>
  <path id="Path_15058" data-name="Path 15058" d="M0,0H10V7H0Z" fill="#192f5d"/>
  <path id="Path_15059" data-name="Path 15059" d="M29.063,21.245l.083.22H29.4l-.208.135.08.22-.21-.137-.207.135.08-.22-.213-.132h.263Zm1.467,0,.08.22h.26l-.21.135.08.22-.208-.137-.21.135.08-.22-.208-.135h.257Zm1.463,0,.083.22h.255l-.207.135.077.22-.21-.137-.208.135.08-.22-.21-.135h.26Zm1.465,0,.08.22h.26l-.21.135.082.22-.21-.137-.21.135.083-.22-.21-.135h.257Zm1.463,0,.082.22h.257l-.208.135.08.22-.21-.137-.208.135.08-.22-.208-.135h.257Zm1.467,0,.08.22h.257l-.21.135.083.22-.21-.137-.21.135.082-.22-.21-.135h.26Zm-8.05,1.1.082.223h.258l-.208.135.08.22-.21-.138-.208.138.08-.22L28,22.573h.263Zm1.467,0,.08.22h.26l-.21.135.08.22-.208-.137-.21.137.08-.22-.212-.135h.257Zm1.462,0,.083.22H31.6l-.208.135.08.22-.21-.137-.207.137.08-.22-.21-.135h.26Zm1.465,0,.08.22h.26l-.21.135.083.22-.21-.137-.21.137.083-.22-.21-.135h.257Zm1.463,0,.083.22h.257l-.208.135.08.22-.21-.137-.208.137.08-.22-.208-.135h.257Zm1.468,0,.08.22H36l-.21.135.083.22-.21-.137-.21.137.082-.22-.21-.135h.26ZM28.338,20.2l.082.223h.258l-.208.135.08.22-.21-.137-.208.137.08-.22L28,20.423h.263Zm1.467,0,.08.22h.26l-.21.135.08.22-.208-.138-.21.138.08-.22-.212-.135h.257Zm1.462,0,.083.22H31.6l-.208.135.08.22-.21-.138-.207.138.08-.22-.21-.135h.26Zm1.465,0,.08.22h.26l-.21.135.083.22-.21-.138-.21.138.083-.22-.21-.135h.257Zm1.463,0,.083.22h.257l-.208.135.08.22-.21-.138-.208.138.08-.22-.208-.135h.257Zm1.468,0,.08.22H36l-.21.135.083.22-.21-.138-.21.138.082-.22-.21-.135h.26Zm-6.6,3.26.083.22H29.4l-.208.135.08.22-.21-.138-.207.135.08-.22-.21-.135h.262Zm1.467,0,.08.22h.26l-.21.135.08.22-.208-.135-.21.135.08-.22-.208-.135h.257Zm1.463,0,.083.22h.255l-.207.135.08.22-.21-.138-.208.135.08-.22-.21-.135h.26Zm1.465,0,.08.22h.26l-.21.135.082.22-.21-.138-.21.135.083-.22-.21-.135h.257Zm1.463,0,.082.22h.257l-.208.135.08.22-.21-.138-.208.135.08-.22-.208-.135h.257Zm1.467,0,.08.22h.257l-.21.135.083.22-.21-.138-.21.135.082-.22-.21-.135h.26Zm-8.053,1.105.083.22h.257l-.208.135.08.218L28.338,25l-.208.135.08-.22L28,24.783h.263Zm1.468,0,.08.22h.26l-.21.135.083.218L29.805,25l-.21.135.082-.22-.21-.135h.257Zm1.462,0,.083.22H31.6l-.207.135.08.218L31.265,25l-.208.135.08-.22-.21-.135h.26Zm1.465,0,.08.22h.26l-.21.135.083.218L32.732,25l-.21.135.083-.22-.21-.135h.257Zm1.463,0,.083.22h.257l-.207.135.08.218L34.195,25l-.208.135.08-.22-.208-.135h.257Zm1.467,0,.08.22H36l-.21.135.083.218L35.66,25l-.21.135.082-.22-.21-.135h.26Zm-6.6,1.107.083.22H29.4l-.208.135.08.22-.21-.135-.207.135.08-.22-.21-.135h.262Zm1.467,0,.08.22h.26l-.21.135.083.22-.21-.135-.21.135.083-.22-.21-.135h.257Zm1.463,0,.083.22h.255l-.2.135.08.22L32,26.113l-.208.135.08-.22-.21-.135h.26Zm1.465,0,.08.22h.26l-.21.135.082.22-.21-.135-.21.135.083-.22-.21-.135h.257Zm1.463,0,.082.22h.257l-.208.135.08.22-.21-.135-.208.135.08-.22-.208-.135h.257Zm1.467,0,.08.22h.257l-.21.135.083.22-.21-.135-.21.135.082-.22-.21-.135h.26Z" transform="translate(-27.3 -19.695)" fill="#fff"/>
</svg>
