<svg width="76" height="76" viewBox="0 0 76 76" fill="none" xmlns="http://www.w3.org/2000/svg">
<rect opacity="0.9" x="37.6519" width="53.2481" height="53.2481" transform="rotate(45 37.6519 0)" fill="#FD1235"/>
<path d="M36.8257 27.3262L34.9751 29.1768L42.2988 36.5137H26.3257V39.1387H42.2988L34.9751 46.4755L36.8257 48.3262L47.3257 37.8262L36.8257 27.3262Z" fill="white"/>
</svg>
