<svg width="315" height="376" viewBox="0 0 315 376" fill="none" xmlns="http://www.w3.org/2000/svg">
<g filter="url(#filter0_d)">
<path d="M80.8824 120.15L22.378 61.1548L70.1315 13L154.787 98.3649L239.444 13L287.198 61.1548L228.691 120.15H80.8824ZM73.1822 180.654L22.378 231.885L70.1315 280.041L154.787 194.673L239.447 280.04L287.198 231.884L236.392 180.654H73.1822Z" fill="white"/>
<path d="M18.0237 163.513C16.009 161.818 15 159.312 15 155.994C15 154.782 15.1248 153.569 15.3754 152.356L15.7492 150.698C16.7841 146.453 18.808 143.136 21.8225 140.745C24.8364 138.356 28.4656 137.161 32.7111 137.161C36.5272 137.161 39.3991 138.097 41.3257 139.969C43.2513 141.842 44.2149 144.384 44.2149 147.594C44.2149 148.736 44.0718 150.02 43.7871 151.446L43.5198 152.784C43.4123 153.177 43.1984 153.507 42.877 153.774C42.5562 154.041 42.1991 154.175 41.8075 154.175H24.8462L24.7927 154.497C24.6857 155.067 24.6317 155.638 24.6317 156.208C24.6317 157.314 24.8996 158.198 25.4344 158.857C25.9691 159.518 26.7723 159.847 27.8418 159.847C28.6984 159.847 29.4211 159.678 30.0088 159.339C30.5981 159 31.1776 158.563 31.7486 158.028C32.1407 157.672 32.4524 157.449 32.6852 157.359C32.9163 157.27 33.2275 157.225 33.6207 157.225H40.6835C41.0044 157.225 41.2539 157.332 41.4327 157.546C41.6109 157.76 41.6649 158.028 41.5931 158.349C41.343 159.312 40.5582 160.4 39.2386 161.613C37.9191 162.826 36.1626 163.869 33.9691 164.743C31.7745 165.617 29.3217 166.054 26.6119 166.054C22.9022 166.054 20.0389 165.207 18.0237 163.513ZM34.5308 148.718L34.5848 148.611C34.7269 148.04 34.7987 147.434 34.7987 146.792C34.7987 145.65 34.5043 144.767 33.9156 144.143C33.3268 143.519 32.4977 143.207 31.4272 143.207C30.0714 143.207 28.9209 143.688 27.9763 144.652C27.0305 145.614 26.3791 146.934 26.0237 148.611V148.718H34.5308Z" fill="white"/>
<path d="M41.5927 165.225C41.4144 165.029 41.3253 164.77 41.3253 164.449C41.3253 164.128 41.4323 163.842 41.6461 163.593L53.4184 150.965L47.7459 139.568C47.6741 139.354 47.6395 139.212 47.6395 139.14C47.6395 138.784 47.7735 138.454 48.0403 138.15C48.3082 137.847 48.6371 137.696 49.0309 137.696H55.6649C56.3422 137.696 56.824 138.017 57.1097 138.659L60.4807 145.133L66.634 138.659C67.1698 138.017 67.7931 137.696 68.5072 137.696H75.6235C75.9443 137.696 76.203 137.794 76.3991 137.99C76.5946 138.187 76.6935 138.445 76.6935 138.766C76.6935 139.087 76.5687 139.373 76.3197 139.622L65.1907 151.661L71.076 163.646C71.1825 163.86 71.2365 164.075 71.2365 164.289C71.2365 164.645 71.1112 164.94 70.8622 165.171C70.6121 165.404 70.2734 165.52 69.8456 165.52H62.9967C62.3896 165.52 61.9267 165.234 61.6053 164.664L58.0739 157.708L51.4923 164.664C51.2417 164.913 50.9927 165.118 50.7437 165.279C50.4936 165.439 50.1549 165.52 49.7266 165.52H42.3424C42.0205 165.519 41.7715 165.421 41.5927 165.225Z" fill="white"/>
<path d="M72.1713 175.31C71.9758 175.06 71.9126 174.74 71.9833 174.348L79.4745 139.033C79.5452 138.641 79.7418 138.32 80.0627 138.07C80.3841 137.821 80.7227 137.696 81.0803 137.696H87.4469C87.8396 137.696 88.1334 137.821 88.33 138.07C88.5256 138.32 88.5888 138.641 88.5175 139.033L88.1431 140.96C89.3201 139.748 90.5775 138.811 91.9155 138.15C93.2528 137.491 94.8489 137.161 96.7032 137.161C99.7004 137.161 102.027 137.972 103.687 139.595C105.345 141.219 106.175 143.527 106.175 146.524C106.175 147.737 106.085 148.807 105.907 149.735C105.728 150.877 105.46 152.142 105.105 153.534C104.105 157.458 102.438 160.526 100.101 162.736C97.7646 164.949 94.8846 166.054 91.4601 166.054C89.6761 166.054 88.1426 165.751 86.8582 165.144C85.5743 164.538 84.6463 163.664 84.0764 162.522L81.5621 174.348C81.4897 174.74 81.2942 175.06 80.9728 175.31C80.652 175.56 80.3122 175.686 79.9557 175.686H73.0544C72.6623 175.686 72.3679 175.56 72.1713 175.31ZM93.1994 157.199C94.109 156.254 94.8128 154.943 95.3129 153.266C95.6338 152.16 95.8833 151.055 96.0621 149.949C96.1328 149.164 96.169 148.63 96.169 148.343C96.169 147.131 95.9098 146.203 95.3929 145.561C94.8759 144.919 93.9923 144.598 92.744 144.598C91.1744 144.598 89.8905 145.088 88.8912 146.07C87.8925 147.051 87.1968 148.29 86.8052 149.788C86.4838 150.894 86.1987 152.232 85.9491 153.802C85.8773 154.087 85.8422 154.516 85.8422 155.086C85.8422 156.156 86.1365 157.012 86.7253 157.654C87.3146 158.296 88.2501 158.617 89.534 158.617C91.0674 158.617 92.2892 158.145 93.1994 157.199Z" fill="white"/>
<path d="M111.498 163.513C109.482 161.818 108.474 159.312 108.474 155.994C108.474 154.782 108.599 153.569 108.849 152.356L109.223 150.698C110.257 146.453 112.282 143.136 115.296 140.745C118.31 138.356 121.94 137.161 126.184 137.161C130.001 137.161 132.873 138.097 134.799 139.969C136.725 141.842 137.689 144.384 137.689 147.594C137.689 148.736 137.545 150.02 137.261 151.446L136.994 152.784C136.886 153.177 136.672 153.507 136.351 153.774C136.03 154.041 135.673 154.175 135.281 154.175H118.32L118.267 154.497C118.16 155.067 118.105 155.638 118.105 156.208C118.105 157.314 118.373 158.198 118.908 158.857C119.443 159.518 120.246 159.847 121.316 159.847C122.172 159.847 122.895 159.678 123.483 159.339C124.072 159 124.651 158.563 125.223 158.028C125.615 157.672 125.926 157.449 126.159 157.359C126.39 157.27 126.702 157.225 127.095 157.225H134.157C134.478 157.225 134.728 157.332 134.907 157.546C135.085 157.76 135.138 158.028 135.067 158.349C134.817 159.312 134.032 160.4 132.713 161.613C131.393 162.826 129.637 163.869 127.442 164.743C125.248 165.617 122.796 166.054 120.085 166.054C116.375 166.054 113.513 165.207 111.498 163.513ZM128.005 148.718L128.059 148.611C128.201 148.04 128.273 147.434 128.273 146.792C128.273 145.65 127.979 144.767 127.39 144.143C126.801 143.519 125.972 143.207 124.902 143.207C123.546 143.207 122.395 143.688 121.451 144.652C120.505 145.614 119.854 146.934 119.498 148.611V148.718H128.005Z" fill="white"/>
<path d="M137.394 165.118C137.199 164.85 137.136 164.538 137.206 164.181L142.504 139.087C142.575 138.695 142.772 138.364 143.093 138.097C143.414 137.829 143.77 137.695 144.162 137.695H150.69C151.083 137.695 151.377 137.829 151.573 138.097C151.768 138.364 151.832 138.695 151.761 139.087L151.333 141.12C152.259 140.015 153.366 139.167 154.65 138.578C155.935 137.99 157.504 137.695 159.359 137.695H162.462C162.818 137.695 163.095 137.821 163.291 138.07C163.488 138.32 163.55 138.641 163.479 139.033L162.249 144.865C162.213 145.223 162.035 145.534 161.713 145.802C161.393 146.07 161.036 146.203 160.643 146.203H155.239C153.812 146.203 152.636 146.596 151.708 147.381C150.78 148.165 150.173 149.271 149.889 150.698L147 164.181C146.927 164.575 146.732 164.895 146.411 165.145C146.09 165.395 145.733 165.519 145.341 165.519H138.278C137.884 165.519 137.59 165.385 137.394 165.118Z" fill="white"/>
<path d="M160.83 165.117C160.634 164.85 160.571 164.538 160.643 164.181L165.939 139.033C166.011 138.677 166.207 138.364 166.528 138.097C166.849 137.829 167.205 137.695 167.599 137.695H174.287C174.679 137.695 174.973 137.821 175.169 138.07C175.365 138.32 175.428 138.641 175.357 139.033L170.007 164.181C169.934 164.575 169.747 164.895 169.445 165.144C169.141 165.395 168.794 165.519 168.401 165.519H161.712C161.32 165.519 161.025 165.385 160.83 165.117ZM167.545 133.442C167.331 133.174 167.259 132.845 167.331 132.452L168.4 127.476C168.472 127.084 168.677 126.753 169.016 126.486C169.355 126.218 169.702 126.084 170.059 126.084H176.748C177.141 126.084 177.443 126.218 177.658 126.486C177.872 126.753 177.943 127.084 177.872 127.476L176.749 132.452C176.713 132.845 176.535 133.174 176.214 133.442C175.892 133.709 175.535 133.843 175.144 133.843H168.456C168.062 133.843 167.758 133.709 167.545 133.442Z" fill="white"/>
<path d="M179.611 163.513C177.595 161.818 176.588 159.312 176.588 155.994C176.588 154.782 176.712 153.569 176.962 152.356L177.336 150.698C178.371 146.453 180.395 143.136 183.409 140.745C186.423 138.356 190.052 137.161 194.298 137.161C198.114 137.161 200.987 138.097 202.912 139.969C204.838 141.842 205.802 144.384 205.802 147.594C205.802 148.736 205.658 150.02 205.374 151.446L205.107 152.784C204.999 153.177 204.785 153.507 204.464 153.774C204.143 154.041 203.786 154.175 203.395 154.175H186.433L186.38 154.497C186.272 155.067 186.219 155.638 186.219 156.208C186.219 157.314 186.486 158.198 187.021 158.857C187.556 159.518 188.359 159.847 189.429 159.847C190.285 159.847 191.007 159.678 191.596 159.339C192.185 159 192.764 158.563 193.336 158.028C193.727 157.672 194.039 157.449 194.271 157.359C194.503 157.27 194.814 157.225 195.207 157.225H202.271C202.591 157.225 202.84 157.332 203.02 157.546C203.197 157.76 203.251 158.028 203.18 158.349C202.93 159.312 202.145 160.4 200.826 161.613C199.506 162.826 197.75 163.869 195.556 164.743C193.361 165.617 190.908 166.054 188.199 166.054C184.489 166.054 181.625 165.207 179.611 163.513ZM196.117 148.718L196.171 148.611C196.313 148.04 196.385 147.434 196.385 146.792C196.385 145.65 196.091 144.767 195.502 144.143C194.914 143.519 194.084 143.207 193.014 143.207C191.658 143.207 190.508 143.688 189.563 144.652C188.617 145.614 187.966 146.934 187.61 148.611V148.718H196.117Z" fill="white"/>
<path d="M205.508 165.117C205.312 164.85 205.249 164.538 205.32 164.181L210.617 139.033C210.689 138.677 210.885 138.364 211.206 138.097C211.528 137.829 211.884 137.695 212.276 137.695H218.858C219.214 137.695 219.491 137.82 219.687 138.07C219.882 138.32 219.945 138.641 219.874 139.033L219.447 141.066C222.121 138.463 225.207 137.16 228.702 137.16C231.52 137.16 233.714 137.883 235.285 139.327C236.853 140.772 237.638 142.868 237.638 145.614C237.638 146.613 237.496 147.826 237.21 149.252L234.001 164.181C233.928 164.574 233.742 164.895 233.438 165.144C233.134 165.394 232.788 165.519 232.395 165.519H225.279C224.885 165.519 224.591 165.385 224.396 165.117C224.199 164.85 224.137 164.538 224.208 164.181L227.258 149.574C227.436 148.754 227.526 148.094 227.526 147.594C227.526 146.596 227.249 145.847 226.696 145.347C226.143 144.848 225.279 144.598 224.101 144.598C222.603 144.598 221.326 145.035 220.275 145.908C219.223 146.783 218.518 148.005 218.162 149.574L215.112 164.181C215.04 164.574 214.844 164.895 214.523 165.144C214.202 165.394 213.863 165.519 213.507 165.519H206.39C205.997 165.519 205.703 165.385 205.508 165.117Z" fill="white"/>
<path d="M245.315 164.85C243.513 164.047 242.096 162.888 241.062 161.373C240.026 159.856 239.51 158.046 239.51 155.941C239.51 155.264 239.564 154.55 239.671 153.801L240.58 149.467C241.614 145.543 243.524 142.512 246.305 140.37C249.088 138.23 252.548 137.16 256.687 137.16C259.539 137.16 261.912 137.669 263.803 138.685C265.694 139.702 267.075 140.933 267.95 142.377C268.824 143.822 269.261 145.168 269.261 146.417L269.207 147.005C269.171 147.362 269.001 147.675 268.698 147.942C268.395 148.209 268.048 148.343 267.655 148.343H260.379C259.664 148.343 259.255 147.987 259.148 147.273C259.076 146.238 258.773 145.481 258.238 144.999C257.703 144.518 256.936 144.277 255.937 144.277C253.155 144.277 251.299 146.096 250.372 149.734C249.944 151.66 249.676 152.927 249.569 153.533C249.426 154.532 249.356 155.192 249.356 155.513C249.356 156.69 249.623 157.555 250.158 158.109C250.693 158.662 251.513 158.938 252.619 158.938C253.654 158.938 254.545 158.706 255.295 158.242C256.044 157.778 256.703 157.047 257.275 156.048C257.488 155.656 257.72 155.371 257.97 155.192C258.22 155.014 258.54 154.924 258.933 154.924H266.211C266.602 154.924 266.896 155.058 267.093 155.326C267.289 155.593 267.334 155.924 267.227 156.316C266.869 157.528 266.103 158.884 264.926 160.382C263.748 161.88 262.027 163.2 259.762 164.342C257.497 165.484 254.723 166.054 251.442 166.054C249.158 166.054 247.116 165.652 245.315 164.85Z" fill="white"/>
<path d="M273.674 163.513C271.658 161.818 270.651 159.312 270.651 155.994C270.651 154.782 270.775 153.569 271.025 152.356L271.399 150.698C272.434 146.453 274.458 143.136 277.473 140.745C280.487 138.356 284.116 137.161 288.361 137.161C292.177 137.161 295.05 138.097 296.975 139.969C298.902 141.842 299.865 144.384 299.865 147.594C299.865 148.736 299.722 150.02 299.437 151.446L299.17 152.784C299.062 153.177 298.848 153.507 298.527 153.774C298.206 154.041 297.85 154.175 297.458 154.175H280.496L280.443 154.497C280.336 155.067 280.282 155.638 280.282 156.208C280.282 157.314 280.55 158.198 281.084 158.857C281.619 159.518 282.423 159.847 283.492 159.847C284.348 159.847 285.07 159.678 285.66 159.339C286.248 159 286.828 158.563 287.398 158.028C287.791 157.672 288.102 157.449 288.335 157.359C288.567 157.27 288.878 157.225 289.271 157.225H296.334C296.655 157.225 296.904 157.332 297.083 157.546C297.261 157.76 297.314 158.028 297.243 158.349C296.993 159.312 296.208 160.4 294.89 161.613C293.569 162.826 291.812 163.869 289.619 164.743C287.424 165.617 284.972 166.054 282.262 166.054C278.552 166.054 275.689 165.207 273.674 163.513ZM290.181 148.718L290.235 148.611C290.377 148.04 290.449 147.434 290.449 146.792C290.449 145.65 290.155 144.767 289.566 144.143C288.977 143.519 288.148 143.207 287.079 143.207C285.722 143.207 284.571 143.688 283.627 144.652C282.681 145.614 282.03 146.934 281.674 148.611V148.718H290.181Z" fill="white"/>
<path d="M85.9631 297.994C85.9971 297.994 86.0063 298.117 85.9895 298.363C85.9712 298.609 85.9539 298.89 85.9366 299.206C85.9188 299.523 85.8837 299.822 85.8313 300.103C85.7783 300.384 85.7168 300.578 85.6465 300.683C85.3651 300.719 84.5041 300.78 83.0636 300.867C81.6214 300.956 79.8023 301.07 77.6061 301.21C75.4093 301.351 72.9657 301.5 70.2775 301.658C67.5881 301.817 64.8545 301.984 62.0771 302.159C55.5733 302.547 48.2804 303.003 40.1951 303.53L38.4029 299.101C47.2606 299.206 55.1704 299.294 62.1306 299.365C65.083 299.4 67.9835 299.426 70.8311 299.444C73.6782 299.462 76.2093 299.479 78.4238 299.496C80.6384 299.515 82.4127 299.532 83.749 299.549C85.0848 299.568 85.7346 299.575 85.6995 299.575L85.9631 297.994ZM66.6116 297.625C66.6461 297.625 66.6553 297.959 66.638 298.627C66.6197 299.294 66.5667 300.208 66.4798 301.369C66.3917 302.528 66.295 303.9 66.1897 305.481C66.0844 307.063 65.9526 308.777 65.7943 310.622C65.6361 312.468 65.4778 314.411 65.3196 316.449C65.1613 318.488 64.9939 320.544 64.8189 322.618L62.7096 347.506L58.1752 346.24L60.8116 293.881C61.9361 294.585 62.9376 295.217 63.8169 295.779C64.5542 296.272 65.2051 296.711 65.7673 297.097C66.3296 297.485 66.5754 297.643 66.5057 297.571L66.6116 297.625Z" fill="white"/>
<path d="M78.7386 316.659C79.968 316.73 80.9434 317.09 81.6651 317.74C82.3845 318.391 82.9209 319.129 83.2736 319.954C83.6241 320.781 83.818 321.608 83.8532 322.433C83.8877 323.259 83.8532 323.883 83.7478 324.305C83.4319 325.29 82.869 326.185 82.061 326.994C81.2519 327.803 80.3385 328.524 79.3187 329.156C78.2989 329.788 77.237 330.334 76.1292 330.79C75.0214 331.248 73.994 331.634 73.0445 331.95C73.0094 332.829 73.0785 333.568 73.2557 334.165C73.4307 334.763 73.6683 335.246 73.9676 335.615C74.2652 335.985 74.5995 336.248 74.969 336.406C75.3379 336.565 75.6987 336.643 76.0493 336.643C76.8227 336.643 77.6319 336.451 78.475 336.064C79.3187 335.677 80.1705 335.159 81.032 334.508C81.893 333.859 82.7464 333.12 83.589 332.294C84.4333 331.468 85.224 330.633 85.9629 329.789C87.7195 327.785 89.4771 325.5 91.2357 322.934L93.5556 324.727C92.0438 327.61 90.3391 330.159 88.44 332.373C87.632 333.322 86.744 334.263 85.7777 335.194C84.8103 336.125 83.7824 336.943 82.6929 337.645C81.6024 338.349 80.4519 338.92 79.2393 339.359C78.0267 339.798 76.7693 340.018 75.4691 340.018C73.6408 340.018 72.1916 339.684 71.1194 339.016C70.0462 338.349 69.2387 337.558 68.6937 336.643C68.1481 335.73 67.7976 334.772 67.6393 333.77C67.4811 332.768 67.4022 331.951 67.4022 331.318C67.4373 330.896 67.5421 330.229 67.7187 329.314C67.8937 328.401 68.167 327.39 68.536 326.283C68.9049 325.175 69.3877 324.042 69.9862 322.882C70.5831 321.722 71.2955 320.667 72.1225 319.718C72.9473 318.769 73.9055 318.004 74.9949 317.424C76.0844 316.844 77.3321 316.589 78.7386 316.659ZM77.7366 319.77C77.56 319.736 77.2791 319.946 76.893 320.403C76.5051 320.86 76.093 321.493 75.6533 322.301C75.2137 323.11 74.7832 324.077 74.3613 325.202C73.9395 326.327 73.6057 327.539 73.3599 328.84C73.9222 328.664 74.5012 328.444 75.1002 328.18C75.6976 327.916 76.2686 327.592 76.8141 327.205C77.3586 326.818 77.8328 326.361 78.2374 325.834C78.6408 325.307 78.9136 324.71 79.0551 324.041C79.0892 323.585 79.0816 323.118 79.0287 322.644C78.9757 322.169 78.879 321.721 78.7386 321.299C78.5976 320.878 78.4394 320.526 78.2638 320.245C78.0872 319.963 77.9122 319.805 77.7366 319.77Z" fill="white"/>
<path d="M99.4068 296.569C99.618 296.535 99.8724 296.641 100.171 296.886C100.469 297.133 100.751 297.581 101.015 298.231C101.278 298.881 101.454 299.76 101.543 300.867C101.63 301.974 101.569 303.372 101.358 305.059C100.761 308.258 100.101 311.07 99.3809 313.495C98.6598 315.921 97.9301 318.013 97.1928 319.77C96.4545 321.528 95.7512 322.969 95.0836 324.094C94.4154 325.219 93.8532 326.08 93.3962 326.678C93.4664 328.892 93.6949 330.773 94.0822 332.319C94.4689 333.867 95.1182 334.78 96.0326 335.061C96.1034 335.097 96.3048 334.868 96.6392 334.376C96.973 333.884 97.3511 333.252 97.7735 332.477C98.1942 331.705 98.6604 330.852 99.1703 329.92C99.6791 328.989 100.146 328.093 100.568 327.231C100.989 326.37 101.359 325.596 101.675 324.911C101.991 324.225 102.203 323.76 102.308 323.514L104.049 326.994C102.923 329.736 101.71 332.074 100.41 334.007C99.8471 334.85 99.2502 335.65 98.6172 336.406C97.9847 337.162 97.3073 337.795 96.5873 338.304C95.8668 338.814 95.1279 339.148 94.3728 339.305C93.6166 339.463 92.8517 339.384 92.0793 339.068H92.1317C91.3939 338.752 90.743 337.821 90.1808 336.274C89.6179 334.727 89.1966 332.821 88.9152 330.553C88.6338 328.286 88.4934 325.781 88.4934 323.039C88.4934 320.297 88.6862 317.556 89.0735 314.813C89.39 312.635 89.82 310.525 90.3655 308.486C90.91 306.448 91.6051 304.602 92.4483 302.95C93.2919 301.298 94.2842 299.909 95.4282 298.784C96.5695 297.659 97.8793 296.921 99.3555 296.569H99.4068ZM94.134 315.762C94.0282 316.642 93.9228 317.521 93.8175 318.399C93.7122 319.278 93.6236 320.139 93.5539 320.983C94.3263 319.12 95.1619 316.711 96.0585 313.759C96.9552 310.806 97.6487 307.467 98.1413 303.741C98.211 303.249 98.2731 302.774 98.3255 302.317C98.3784 301.861 98.4395 301.386 98.5102 300.893V300.999C98.5102 300.964 98.501 300.938 98.4838 300.92C98.4659 300.903 98.4573 300.876 98.4573 300.841L98.1937 301.315C97.7729 301.948 97.3678 302.766 96.9816 303.767C96.5943 304.769 96.2254 305.903 95.8738 307.168C95.5227 308.433 95.1965 309.796 94.8989 311.254C94.5996 312.714 94.3447 314.216 94.134 315.762Z" fill="white"/>
<path d="M123.872 316.659C125.138 316.659 126.121 316.879 126.825 317.318C127.529 317.758 128.037 318.259 128.354 318.821C128.67 319.384 128.856 319.946 128.908 320.508C128.96 321.071 128.987 321.476 128.987 321.721C128.987 321.792 128.994 321.862 129.013 321.932C129.03 322.003 129.021 322.056 128.987 322.09C128.987 322.301 128.889 322.512 128.696 322.723C128.503 322.934 128.275 323.101 128.011 323.223C127.748 323.347 127.449 323.427 127.115 323.461C126.78 323.496 126.473 323.443 126.192 323.303C125.91 323.198 125.717 323.039 125.612 322.828C125.507 322.617 125.4 322.372 125.295 322.09C125.224 321.774 125.076 321.457 124.848 321.141C124.618 320.824 124.188 320.685 123.555 320.719C123.274 320.755 122.861 321.027 122.317 321.537C121.771 322.047 121.208 322.714 120.629 323.54C120.049 324.366 119.522 325.333 119.047 326.44C118.572 327.547 118.264 328.717 118.125 329.947C117.878 331.774 117.905 333.145 118.204 334.059C118.502 334.974 118.897 335.448 119.39 335.484C120.163 335.518 120.874 335.193 121.525 334.507C122.175 333.822 122.747 333.076 123.239 332.266C123.801 331.317 124.328 330.21 124.821 328.945L127.774 327.574L127.616 331.423C126.807 333.005 125.911 334.411 124.927 335.642C124.082 336.696 123.098 337.654 121.974 338.515C120.848 339.376 119.619 339.807 118.284 339.807C117.579 339.807 116.851 339.613 116.094 339.227C115.338 338.84 114.662 338.252 114.065 337.461C113.467 336.67 113.001 335.65 112.667 334.403C112.333 333.156 112.219 331.67 112.325 329.947C112.395 328.893 112.694 327.61 113.22 326.098C113.748 324.587 114.494 323.128 115.461 321.721C116.428 320.315 117.614 319.111 119.02 318.109C120.427 317.108 122.045 316.625 123.872 316.659ZM126.034 322.723C126.28 322.301 126.649 322.09 127.142 322.09C127.633 322.09 128.117 322.213 128.592 322.459C129.066 322.705 129.479 323.022 129.831 323.408C130.182 323.795 130.376 324.146 130.412 324.463C130.446 324.85 130.297 325.456 129.962 326.282C129.628 327.109 129.303 327.872 128.987 328.576C128.916 328.681 128.846 328.857 128.776 329.103C128.704 329.349 128.635 329.56 128.565 329.735C128.494 330.088 128.441 330.536 128.407 331.08C128.372 331.625 128.372 332.153 128.407 332.662C128.441 333.172 128.529 333.611 128.67 333.98C128.811 334.35 129.057 334.534 129.409 334.534C129.759 334.534 130.182 334.28 130.673 333.77C131.165 333.26 131.684 332.619 132.229 331.845C132.774 331.072 133.319 330.229 133.864 329.314C134.408 328.4 134.9 327.547 135.339 326.757C135.779 325.965 136.149 325.29 136.447 324.726C136.746 324.164 136.912 323.83 136.949 323.724C136.949 323.76 137.019 323.875 137.159 324.068C137.3 324.261 137.467 324.472 137.661 324.7C137.853 324.929 138.056 325.131 138.268 325.307C138.478 325.483 138.654 325.57 138.795 325.57C138.795 325.781 138.776 325.957 138.741 326.098C138.706 326.274 138.67 326.432 138.636 326.572C138.601 326.713 138.566 326.818 138.531 326.888L138.584 326.836C138.479 327.152 138.276 327.653 137.977 328.339C137.678 329.024 137.309 329.797 136.87 330.658C136.431 331.521 135.921 332.407 135.341 333.321C134.762 334.235 134.111 335.07 133.39 335.825C132.67 336.582 131.887 337.205 131.043 337.698C130.2 338.19 129.303 338.435 128.354 338.435C127.334 338.435 126.535 338.111 125.956 337.46C125.376 336.811 124.954 335.976 124.69 334.956C124.426 333.937 124.303 332.812 124.321 331.581C124.338 330.351 124.435 329.155 124.611 327.996C124.785 326.801 125.006 325.72 125.27 324.753C125.532 323.787 125.788 323.111 126.034 322.723Z" fill="white"/>
<path d="M141.642 317.292C141.572 317.574 141.5 317.917 141.431 318.32C141.36 318.725 141.289 319.138 141.219 319.56C141.149 319.982 141.079 320.395 141.009 320.799C140.937 321.204 140.885 321.529 140.85 321.774C140.007 327.785 140.446 332.794 142.168 336.802V336.696C142.168 336.732 142.282 336.504 142.511 336.011C142.739 335.519 143.028 334.869 143.381 334.059C143.732 333.252 144.127 332.32 144.567 331.265C145.006 330.211 145.437 329.156 145.859 328.102C145.543 326.871 145.341 325.58 145.253 324.226C145.165 322.874 145.209 321.581 145.385 320.351C145.63 318.734 146.149 317.292 146.94 316.027C147.731 314.761 148.813 313.988 150.183 313.707C150.428 313.707 150.736 313.769 151.105 313.891C151.475 314.015 151.817 314.181 152.133 314.392C152.45 314.603 152.704 314.84 152.898 315.104C153.092 315.368 153.17 315.658 153.136 315.975C152.96 317.31 152.537 318.971 151.869 320.957C151.202 322.943 150.428 324.99 149.549 327.1C149.62 327.838 149.761 328.506 149.971 329.103C150.182 329.702 150.499 330.035 150.92 330.105C151.061 330.141 151.263 330.053 151.527 329.842C151.791 329.631 152.098 329.35 152.449 328.998C152.8 328.647 153.18 328.243 153.584 327.785C153.988 327.329 154.383 326.855 154.77 326.362C155.684 325.237 156.685 323.954 157.776 322.513L159.989 324.358C158.794 326.257 157.617 327.926 156.457 329.367C155.964 330 155.437 330.606 154.875 331.186C154.312 331.767 153.759 332.285 153.214 332.741C152.669 333.199 152.125 333.551 151.579 333.796C151.034 334.043 150.532 334.148 150.077 334.112C149.585 334.078 149.111 333.867 148.654 333.48C148.196 333.094 147.774 332.584 147.388 331.951C146.544 333.779 145.806 335.325 145.173 336.591C144.54 337.857 144.189 338.578 144.119 338.753C143.555 339.947 142.677 340.545 141.482 340.545C140.708 340.545 139.918 340.211 139.109 339.544C137.527 338.208 136.465 335.782 135.919 332.267C135.373 328.753 135.505 324.463 136.314 319.401L141.642 317.292Z" fill="white"/>
<path d="M156.669 318.505C156.914 318.083 157.319 317.882 157.882 317.899C158.444 317.917 159.016 318.039 159.595 318.268C160.176 318.497 160.693 318.787 161.151 319.137C161.608 319.49 161.855 319.823 161.889 320.139C161.889 320.315 161.81 320.65 161.652 321.141C161.494 321.634 161.283 322.205 161.019 322.855C160.756 323.507 160.473 324.209 160.175 324.964C159.877 325.721 159.586 326.432 159.305 327.1L159.358 327.047L158.304 329.788C158.268 329.965 158.216 330.22 158.146 330.553C158.075 330.888 158.005 331.283 157.934 331.74C157.863 332.162 157.811 332.601 157.776 333.058C157.741 333.515 157.732 333.927 157.749 334.297C157.766 334.666 157.828 334.975 157.934 335.22C158.04 335.466 158.216 335.589 158.462 335.589C158.812 335.589 159.253 335.308 159.78 334.745C160.308 334.183 160.87 333.48 161.467 332.636C162.064 331.792 162.661 330.87 163.259 329.868C163.857 328.866 164.402 327.917 164.894 327.021C165.386 326.125 165.799 325.368 166.133 324.754C166.467 324.139 166.652 323.778 166.687 323.672C166.687 323.708 166.766 323.822 166.924 324.015C167.082 324.209 167.266 324.42 167.476 324.647C167.689 324.877 167.925 325.079 168.189 325.254C168.452 325.431 168.725 325.518 169.006 325.518C168.901 325.729 168.777 325.923 168.636 326.098C168.531 326.274 168.433 326.432 168.347 326.572C168.259 326.713 168.215 326.801 168.215 326.836L168.268 326.783C168.163 327.1 167.942 327.636 167.608 328.392C167.275 329.148 166.861 329.992 166.369 330.923C165.877 331.855 165.315 332.821 164.683 333.823C164.05 334.825 163.355 335.753 162.6 336.607C161.844 337.461 161.027 338.156 160.149 338.689C159.27 339.223 158.355 339.491 157.406 339.491C156.491 339.491 155.789 339.134 155.297 338.422C154.805 337.709 154.462 336.778 154.27 335.628C154.075 334.478 154.006 333.199 154.058 331.792C154.112 330.387 154.243 328.963 154.454 327.522C154.594 326.466 154.771 325.448 154.981 324.463C155.192 323.48 155.403 322.583 155.613 321.774C155.825 320.966 156.027 320.271 156.22 319.692C156.414 319.111 156.564 318.716 156.669 318.505ZM156.089 311.545C156.159 310.456 156.573 309.524 157.328 308.751C158.083 307.978 158.955 307.59 159.938 307.59C160.958 307.59 161.784 307.968 162.417 308.724C163.05 309.48 163.33 310.385 163.26 311.439C163.19 312.529 162.768 313.443 161.995 314.181C161.221 314.92 160.325 315.289 159.306 315.289C158.357 315.289 157.557 314.929 156.908 314.208C156.256 313.488 155.984 312.6 156.089 311.545Z" fill="white"/>
<path d="M171.379 317.292C171.308 317.574 171.238 317.917 171.167 318.32C171.097 318.725 171.027 319.138 170.957 319.56C170.886 319.982 170.815 320.395 170.746 320.799C170.674 321.204 170.622 321.529 170.587 321.774C169.744 327.785 170.183 332.794 171.906 336.802V336.696C171.906 336.732 172.019 336.504 172.248 336.011C172.477 335.519 172.766 334.869 173.119 334.059C173.469 333.252 173.865 332.32 174.304 331.265C174.743 330.211 175.173 329.156 175.597 328.102C175.28 326.871 175.078 325.58 174.991 324.226C174.901 322.874 174.946 321.581 175.122 320.351C175.368 318.734 175.887 317.292 176.678 316.027C177.468 314.761 178.549 313.988 179.92 313.707C180.166 313.707 180.473 313.769 180.842 313.891C181.212 314.015 181.554 314.181 181.871 314.392C182.188 314.603 182.442 314.84 182.636 315.104C182.828 315.368 182.907 315.658 182.872 315.975C182.696 317.31 182.274 318.971 181.607 320.957C180.939 322.943 180.165 324.99 179.287 327.1C179.357 327.838 179.498 328.506 179.709 329.103C179.919 329.702 180.236 330.035 180.658 330.105C180.798 330.141 181 330.053 181.265 329.842C181.528 329.631 181.835 329.35 182.187 328.998C182.537 328.647 182.916 328.243 183.321 327.785C183.725 327.329 184.119 326.855 184.507 326.362C185.42 325.237 186.423 323.954 187.512 322.513L189.727 324.358C188.531 326.257 187.353 327.926 186.195 329.367C185.702 330 185.173 330.606 184.612 331.186C184.049 331.767 183.497 332.285 182.951 332.741C182.405 333.199 181.861 333.551 181.316 333.796C180.771 334.043 180.27 334.148 179.814 334.112C179.321 334.078 178.847 333.867 178.391 333.48C177.933 333.094 177.511 332.584 177.125 331.951C176.281 333.779 175.543 335.325 174.91 336.591C174.277 337.857 173.926 338.578 173.855 338.753C173.292 339.947 172.414 340.545 171.219 340.545C170.445 340.545 169.655 340.211 168.846 339.544C167.264 338.208 166.201 335.782 165.655 332.267C165.11 328.753 165.243 324.463 166.051 319.401L171.379 317.292Z" fill="white"/>
<path d="M211.821 316.923C212.243 316.853 212.612 316.862 212.929 316.949C213.245 317.037 213.527 317.178 213.773 317.372C214.018 317.565 214.211 317.776 214.352 318.004C214.493 318.233 214.598 318.452 214.669 318.663C214.669 318.734 214.651 319.156 214.615 319.929C214.58 320.702 214.511 321.721 214.405 322.987C214.299 324.252 214.158 325.72 213.982 327.39C213.806 329.059 213.596 330.844 213.349 332.741L213.245 333.48C214.861 332.003 216.505 330.404 218.175 328.681C219.845 326.959 221.505 324.99 223.158 322.776L225.531 324.727C223.949 327.188 222.052 329.525 219.836 331.739C217.622 333.954 215.319 336.134 212.929 338.278L212.349 338.858C211.998 340.615 211.593 342.346 211.137 344.052C210.679 345.756 210.169 347.374 209.607 348.902C209.045 350.432 208.429 351.829 207.762 353.095C207.093 354.36 206.356 355.414 205.547 356.258C204.738 357.066 203.807 357.725 202.752 358.235C201.698 358.744 200.714 359 199.8 359C198.78 359 197.91 358.683 197.19 358.05C196.47 357.418 196.074 356.417 196.003 355.045C195.933 354.378 195.95 353.692 196.056 352.989C196.267 351.582 196.716 350.256 197.4 349.008C198.087 347.76 198.956 346.53 200.011 345.317C201.064 344.104 202.259 342.9 203.597 341.705C204.932 340.51 206.373 339.28 207.92 338.014C208.096 337.205 208.254 336.389 208.395 335.562C208.534 334.737 208.659 333.919 208.764 333.11C208.975 331.599 209.141 330.167 209.265 328.813C209.389 327.46 209.466 326.229 209.502 325.122C209.537 324.015 209.528 323.066 209.475 322.274C209.424 321.484 209.326 320.913 209.185 320.561C209.045 320.28 209.035 319.946 209.16 319.56C209.282 319.174 209.475 318.795 209.739 318.427C210.002 318.058 210.319 317.733 210.689 317.451C211.056 317.169 211.434 316.994 211.821 316.923ZM201.751 315.499C201.996 315.078 202.401 314.866 202.963 314.866C203.524 314.866 204.104 314.981 204.703 315.209C205.3 315.439 205.828 315.729 206.285 316.079C206.741 316.431 206.971 316.765 206.971 317.081L206.917 317.028C206.953 317.24 206.883 317.687 206.707 318.373C206.53 319.059 206.302 319.849 206.021 320.746C205.74 321.642 205.423 322.601 205.071 323.619C204.721 324.639 204.404 325.606 204.123 326.52L202.963 329.947C202.928 330.088 202.876 330.325 202.805 330.659C202.734 330.993 202.663 331.389 202.593 331.845C202.523 332.232 202.47 332.636 202.435 333.058C202.401 333.48 202.365 333.875 202.329 334.244C202.295 334.613 202.269 334.929 202.251 335.193C202.232 335.457 202.242 335.607 202.278 335.641C202.629 335.607 203.068 335.298 203.596 334.719C204.123 334.139 204.684 333.427 205.283 332.584C205.88 331.739 206.478 330.817 207.075 329.815C207.672 328.813 208.217 327.873 208.71 326.994C209.201 326.116 209.606 325.378 209.923 324.779C210.239 324.182 210.414 323.83 210.449 323.725C210.449 323.76 210.529 323.875 210.687 324.068C210.845 324.261 211.029 324.472 211.24 324.701C211.452 324.929 211.688 325.131 211.951 325.307C212.215 325.483 212.488 325.57 212.769 325.57C212.664 325.781 212.54 325.975 212.4 326.15C212.295 326.327 212.197 326.485 212.11 326.625C212.022 326.766 211.978 326.854 211.978 326.889L212.031 326.836C211.927 327.152 211.705 327.688 211.371 328.444C211.037 329.201 210.624 330.044 210.132 330.974C209.64 331.907 209.077 332.873 208.445 333.875C207.812 334.876 207.118 335.799 206.363 336.643C205.606 337.487 204.789 338.172 203.912 338.7C203.032 339.227 202.118 339.491 201.17 339.491C200.361 339.491 199.737 339.183 199.298 338.568C198.857 337.953 198.55 337.127 198.375 336.09C198.199 335.053 198.145 333.858 198.217 332.504C198.287 331.152 198.427 329.754 198.638 328.312C198.849 326.907 199.095 325.491 199.377 324.068C199.657 322.643 199.947 321.335 200.247 320.139C200.544 318.945 200.834 317.934 201.116 317.108C201.397 316.282 201.625 315.729 201.801 315.447L201.751 315.499ZM200.801 356.153C201.925 355.133 202.972 353.577 203.939 351.486C204.905 349.394 205.74 347.048 206.443 344.447C204.968 345.958 203.684 347.435 202.594 348.876C201.504 350.317 200.749 351.705 200.327 353.041C199.976 354.061 199.879 354.896 200.037 355.546C200.195 356.197 200.45 356.398 200.801 356.153Z" fill="white"/>
<path d="M230.117 316.659C231.383 316.659 232.367 316.879 233.071 317.318C233.774 317.758 234.283 318.259 234.599 318.821C234.916 319.384 235.101 319.946 235.153 320.508C235.206 321.071 235.232 321.476 235.232 321.721C235.232 321.792 235.24 321.862 235.258 321.932C235.276 322.003 235.266 322.056 235.232 322.09C235.232 322.301 235.134 322.512 234.942 322.723C234.748 322.934 234.52 323.101 234.256 323.223C233.993 323.347 233.693 323.427 233.359 323.461C233.026 323.496 232.717 323.443 232.437 323.303C232.155 323.198 231.962 323.039 231.858 322.828C231.752 322.617 231.646 322.372 231.542 322.09C231.47 321.774 231.321 321.457 231.093 321.141C230.864 320.824 230.433 320.685 229.8 320.719C229.519 320.755 229.106 321.027 228.561 321.537C228.016 322.047 227.453 322.714 226.874 323.54C226.294 324.366 225.767 325.333 225.292 326.44C224.817 327.547 224.509 328.717 224.369 329.947C224.123 331.774 224.149 333.145 224.448 334.059C224.748 334.974 225.142 335.448 225.635 335.484C226.408 335.518 227.12 335.193 227.77 334.507C228.42 333.822 228.991 333.076 229.484 332.266C230.045 331.317 230.574 330.21 231.067 328.945L234.02 327.574L233.861 331.423C233.052 333.005 232.155 334.411 231.172 335.642C230.327 336.696 229.343 337.654 228.218 338.515C227.094 339.376 225.864 339.807 224.528 339.807C223.825 339.807 223.095 339.613 222.339 339.227C221.584 338.84 220.906 338.252 220.309 337.461C219.712 336.67 219.245 335.65 218.912 334.403C218.578 333.156 218.464 331.67 218.569 329.947C218.639 328.893 218.938 327.61 219.465 326.098C219.993 324.587 220.739 323.128 221.706 321.721C222.673 320.315 223.859 319.111 225.266 318.109C226.672 317.108 228.289 316.625 230.117 316.659ZM232.279 322.723C232.525 322.301 232.895 322.09 233.387 322.09C233.879 322.09 234.362 322.213 234.837 322.459C235.311 322.705 235.724 323.022 236.076 323.408C236.427 323.795 236.621 324.146 236.657 324.463C236.691 324.85 236.542 325.456 236.208 326.282C235.873 327.109 235.549 327.872 235.232 328.576C235.162 328.681 235.091 328.857 235.021 329.103C234.95 329.349 234.88 329.56 234.811 329.735C234.74 330.088 234.686 330.536 234.652 331.08C234.617 331.625 234.617 332.153 234.652 332.662C234.686 333.172 234.775 333.611 234.916 333.98C235.056 334.35 235.302 334.534 235.654 334.534C236.004 334.534 236.427 334.28 236.92 333.77C237.411 333.26 237.929 332.619 238.475 331.845C239.02 331.072 239.563 330.229 240.108 329.314C240.654 328.4 241.146 327.547 241.585 326.757C242.024 325.965 242.394 325.29 242.693 324.726C242.991 324.164 243.158 323.83 243.194 323.724C243.194 323.76 243.264 323.875 243.405 324.068C243.545 324.261 243.711 324.472 243.905 324.7C244.099 324.929 244.301 325.131 244.511 325.307C244.723 325.483 244.899 325.57 245.04 325.57C245.04 325.781 245.022 325.957 244.987 326.098C244.952 326.274 244.916 326.432 244.881 326.572C244.846 326.713 244.811 326.818 244.777 326.888L244.83 326.836C244.724 327.152 244.521 327.653 244.222 328.339C243.924 329.024 243.555 329.797 243.115 330.658C242.675 331.521 242.167 332.407 241.586 333.321C241.006 334.235 240.356 335.07 239.635 335.825C238.915 336.582 238.132 337.205 237.289 337.698C236.444 338.19 235.549 338.435 234.599 338.435C233.58 338.435 232.782 338.111 232.202 337.46C231.621 336.811 231.2 335.976 230.936 334.956C230.673 333.937 230.548 332.812 230.566 331.581C230.583 330.351 230.68 329.155 230.856 327.996C231.031 326.801 231.252 325.72 231.515 324.753C231.779 323.787 232.033 323.111 232.279 322.723Z" fill="white"/>
<path d="M239.503 337.382C239.855 335.027 240.311 332.567 240.874 330C241.435 327.435 242.041 324.868 242.693 322.302C243.343 319.736 244.029 317.232 244.749 314.788C245.47 312.345 246.164 310.087 246.832 308.013C247.5 305.938 248.123 304.111 248.705 302.529C249.284 300.947 249.785 299.717 250.207 298.838C250.277 298.627 250.355 298.434 250.444 298.258C250.531 298.083 250.645 297.976 250.786 297.942C250.927 297.907 251.103 297.959 251.314 298.099C251.525 298.24 251.807 298.54 252.158 298.996C252.369 299.313 252.571 299.638 252.764 299.971C252.957 300.306 253.134 300.63 253.292 300.947C253.451 301.264 253.564 301.545 253.634 301.79C253.705 302.037 253.705 302.23 253.634 302.371V302.318C253.002 303.513 252.386 304.937 251.789 306.589C251.191 308.242 250.62 310.025 250.076 311.94C249.53 313.857 249.021 315.842 248.546 317.899C248.073 319.955 247.623 321.977 247.202 323.962C246.78 325.949 246.393 327.856 246.043 329.683C245.691 331.512 245.392 333.146 245.146 334.588C247.044 333.393 248.775 332.048 250.339 330.554C251.903 329.059 253.248 327.416 254.374 325.624C254.514 325.412 254.724 325.343 255.006 325.412C255.287 325.484 255.568 325.616 255.85 325.808C256.131 326.002 256.367 326.213 256.561 326.441C256.754 326.67 256.833 326.855 256.798 326.995C256.411 328.015 255.744 329.086 254.795 330.211C253.845 331.337 252.878 332.391 251.895 333.375C250.734 334.535 249.487 335.661 248.15 336.749C248.432 336.96 248.731 337.233 249.047 337.566C249.364 337.901 249.635 338.297 249.864 338.753C250.093 339.209 250.268 339.737 250.391 340.335C250.515 340.932 250.505 341.617 250.366 342.391C250.26 343.164 250.04 344.026 249.707 344.975C249.372 345.924 249.012 346.838 248.625 347.716C248.238 348.595 247.834 349.378 247.413 350.063C246.991 350.749 246.621 351.214 246.305 351.461C245.601 352.058 244.908 352.497 244.223 352.779C243.537 353.06 242.896 353.2 242.299 353.2C241.701 353.2 241.172 353.077 240.715 352.831C240.26 352.585 239.891 352.268 239.609 351.882C239.011 350.968 238.696 349.483 238.66 347.427C238.625 345.371 238.765 342.936 239.081 340.124H239.029C238.889 340.124 238.625 340.053 238.238 339.913C237.852 339.772 237.465 339.614 237.078 339.438C236.621 339.228 236.111 338.981 235.548 338.7C236.253 338.524 236.93 338.331 237.579 338.12C238.23 337.909 238.87 337.664 239.503 337.382ZM244.46 338.753L244.407 339.281L244.248 340.282C244.213 340.352 244.161 340.651 244.09 341.179C244.019 341.706 243.94 342.32 243.853 343.024C243.765 343.727 243.686 344.482 243.616 345.291C243.545 346.1 243.501 346.838 243.484 347.506C243.466 348.173 243.484 348.726 243.537 349.167C243.59 349.606 243.704 349.808 243.88 349.773C243.984 349.773 244.135 349.571 244.328 349.167C244.52 348.762 244.731 348.235 244.961 347.585C245.189 346.934 245.409 346.196 245.62 345.371C245.831 344.544 245.989 343.709 246.095 342.866C246.165 342.338 246.208 341.828 246.227 341.336C246.244 340.844 246.217 340.369 246.147 339.913C246.076 339.526 245.857 339.245 245.488 339.069C245.119 338.894 244.793 338.788 244.513 338.753H244.46ZM252.105 298.944C252.07 298.909 252.053 298.873 252.053 298.838C252.053 298.873 252.07 298.909 252.105 298.944ZM252.158 298.996C252.123 298.996 252.105 298.978 252.105 298.944L252.158 298.996Z" fill="white"/>
<path d="M262.228 317.397C262.263 317.468 262.369 317.59 262.545 317.767C262.719 317.943 262.87 318.153 262.992 318.399C263.116 318.646 263.178 318.892 263.178 319.137C263.178 319.384 263.036 319.594 262.756 319.77C262.51 319.91 262.105 320.263 261.543 320.824C260.98 321.388 260.391 322.1 259.777 322.96C259.161 323.822 258.59 324.798 258.062 325.886C257.535 326.976 257.183 328.119 257.008 329.314C256.832 330.439 256.936 331.634 257.325 332.9C257.746 334.2 258.186 335.132 258.642 335.694C259.099 336.257 259.468 336.467 259.75 336.327C260.804 335.905 261.682 335.29 262.386 334.482C263.089 333.673 263.685 332.812 264.179 331.898C263.828 331.475 263.528 331.01 263.283 330.5C263.036 329.991 262.834 329.498 262.676 329.024C262.518 328.549 262.395 328.11 262.307 327.706C262.218 327.302 262.175 326.976 262.175 326.73V326.783C262.141 326.256 262.131 325.747 262.149 325.254C262.167 324.762 262.21 324.288 262.281 323.83C262.421 322.741 262.684 321.845 263.072 321.141C263.457 320.438 263.871 319.876 264.31 319.453C264.75 319.032 265.172 318.742 265.577 318.583C265.979 318.426 266.306 318.312 266.553 318.241L266.499 318.294C266.744 318.224 267.079 318.267 267.5 318.426C267.922 318.583 268.344 318.847 268.766 319.216C269.188 319.585 269.565 320.069 269.899 320.667C270.233 321.264 270.418 321.95 270.454 322.723C270.348 323.286 270.111 324.261 269.742 325.649C269.373 327.038 268.836 328.576 268.133 330.263C268.204 330.334 268.344 330.369 268.555 330.369C268.942 330.298 269.512 329.903 270.269 329.182C271.024 328.462 271.771 327.662 272.509 326.783C273.387 325.764 274.302 324.621 275.251 323.355L277.255 325.359C276.375 326.941 275.444 328.347 274.46 329.578C273.616 330.632 272.64 331.617 271.534 332.531C270.427 333.445 269.258 333.954 268.027 334.059C267.5 334.059 266.973 333.954 266.446 333.743C265.672 335.219 264.767 336.503 263.73 337.592C262.693 338.682 261.56 339.385 260.329 339.701C259.732 339.841 259.045 339.912 258.273 339.912C257.324 339.912 256.497 339.745 255.795 339.411C255.09 339.077 254.494 338.647 254.002 338.119C253.509 337.592 253.105 337.004 252.789 336.353C252.472 335.703 252.209 335.061 251.999 334.428C251.296 332.601 251.084 330.861 251.366 329.209C251.506 327.978 251.866 326.818 252.446 325.728C253.026 324.639 253.703 323.655 254.476 322.775C255.25 321.898 256.075 321.107 256.954 320.402C257.833 319.7 258.642 319.12 259.38 318.663C260.118 318.206 260.742 317.855 261.252 317.608C261.762 317.363 262.051 317.257 262.122 317.292L262.228 317.397Z" fill="white"/>
</g>
<defs>
<filter id="filter0_d" x="0" y="0" width="314.865" height="376" filterUnits="userSpaceOnUse" color-interpolation-filters="sRGB">
<feFlood flood-opacity="0" result="BackgroundImageFix"/>
<feColorMatrix in="SourceAlpha" type="matrix" values="0 0 0 0 0 0 0 0 0 0 0 0 0 0 0 0 0 0 127 0"/>
<feOffset dy="2"/>
<feGaussianBlur stdDeviation="7.5"/>
<feColorMatrix type="matrix" values="0 0 0 0 0 0 0 0 0 0 0 0 0 0 0 0 0 0 0.6 0"/>
<feBlend mode="normal" in2="BackgroundImageFix" result="effect1_dropShadow"/>
<feBlend mode="normal" in="SourceGraphic" in2="effect1_dropShadow" result="shape"/>
</filter>
</defs>
</svg>
