<svg width="24" height="25" viewBox="0 0 24 25" fill="none" xmlns="http://www.w3.org/2000/svg">
<path d="M14.8483 16.432V23.239H1.23438V1.8457H14.8483V8.65265" stroke="#80879F" stroke-width="1.94484" stroke-miterlimit="10" stroke-linecap="round" stroke-linejoin="round"/>
<path d="M8.04102 12.543H22.6273" stroke="#80879F" stroke-width="1.94484" stroke-miterlimit="10" stroke-linecap="round" stroke-linejoin="round"/>
<path d="M22.627 12.544L18.7373 8.6543" stroke="#80879F" stroke-width="1.94484" stroke-miterlimit="10" stroke-linecap="round" stroke-linejoin="round"/>
<path d="M22.627 12.543L18.7373 16.4327" stroke="#80879F" stroke-width="1.94484" stroke-miterlimit="10" stroke-linecap="round" stroke-linejoin="round"/>
</svg>
