<svg width="19" height="18" viewBox="0 0 19 18" fill="none" xmlns="http://www.w3.org/2000/svg">
<g filter="url(#filter0_d)">
<path d="M9.50137 3.40039L10.7964 6.71796L14.3518 6.9244L11.5967 9.18122L12.4991 12.6264L9.50137 10.7036L6.50366 12.6264L7.406 9.18122L4.65098 6.9244L8.20636 6.71796L9.50137 3.40039Z" fill="white"/>
</g>
<defs>
<filter id="filter0_d" x="0.651367" y="0.400391" width="17.7008" height="17.226" filterUnits="userSpaceOnUse" color-interpolation-filters="sRGB">
<feFlood flood-opacity="0" result="BackgroundImageFix"/>
<feColorMatrix in="SourceAlpha" type="matrix" values="0 0 0 0 0 0 0 0 0 0 0 0 0 0 0 0 0 0 127 0"/>
<feOffset dy="1"/>
<feGaussianBlur stdDeviation="2"/>
<feColorMatrix type="matrix" values="0 0 0 0 0.163333 0 0 0 0 0.35 0 0 0 0 0.35 0 0 0 0.3 0"/>
<feBlend mode="normal" in2="BackgroundImageFix" result="effect1_dropShadow"/>
<feBlend mode="normal" in="SourceGraphic" in2="effect1_dropShadow" result="shape"/>
</filter>
</defs>
</svg>
