<svg width="22" height="26" viewBox="0 0 22 26" fill="none" xmlns="http://www.w3.org/2000/svg">
<path d="M11.5815 20.6358C16.7086 20.3085 20.6358 16.0541 20.6358 10.8179C20.6358 5.36351 16.2723 1 10.8179 1C5.36351 1 1 5.36351 1 10.8179C1 14.7451 3.29084 18.1268 6.67256 19.654" stroke="white" stroke-width="1.94484" stroke-miterlimit="10" stroke-linecap="round" stroke-linejoin="round"/>
<path d="M6.67233 19.6543C8.63591 22.4906 5.36328 24.9996 5.36328 24.9996C9.39953 24.9996 10.9268 22.4906 11.5813 20.6361" stroke="white" stroke-width="1.94484" stroke-miterlimit="10" stroke-linecap="round" stroke-linejoin="round"/>
<path d="M6.4541 8.63672H15.1811" stroke="white" stroke-width="1.94484" stroke-miterlimit="10" stroke-linecap="round" stroke-linejoin="round"/>
<path d="M6.4541 13H12.9994" stroke="white" stroke-width="1.94484" stroke-miterlimit="10" stroke-linecap="round" stroke-linejoin="round"/>
</svg>
