<svg width="39" height="35" viewBox="0 0 39 35" fill="none" xmlns="http://www.w3.org/2000/svg">
<path d="M27.2495 33.8972H5.90593C3.89713 33.8972 2.29395 32.2746 2.29395 30.2849H23.6375V30.3429C23.6568 32.2939 25.2793 33.8972 27.2495 33.8972ZM27.2495 33.8972C29.2583 33.8972 30.8615 32.2746 30.8615 30.2849V4.4771C30.8615 2.5647 32.426 1 34.3383 1C36.2505 1 37.8151 2.5647 37.8151 4.4771V4.82481H30.8615" stroke="white" stroke-width="2" stroke-miterlimit="10" stroke-linecap="round"/>
<path d="M6.96875 7.80866V4.63164C6.96875 2.62265 8.59125 1 10.6001 1H34.2422" stroke="white" stroke-width="2" stroke-miterlimit="10" stroke-linecap="round"/>
<path d="M6.96875 26.2051V30.2662" stroke="white" stroke-width="2" stroke-miterlimit="10" stroke-linecap="round"/>
<path d="M12.6396 8.68945H27.2703" stroke="white" stroke-width="2" stroke-miterlimit="10" stroke-linecap="round"/>
<path d="M12.6396 26.2871H27.2703" stroke="white" stroke-width="2" stroke-miterlimit="10" stroke-linecap="round"/>
<path d="M17.0469 20.2988H27.2692" stroke="white" stroke-width="2" stroke-miterlimit="10" stroke-linecap="round"/>
<path d="M17.0469 14.4844H27.2692" stroke="white" stroke-width="2" stroke-miterlimit="10" stroke-linecap="round"/>
<path d="M10.1064 22.8678C11.0239 22.8678 11.7676 21.9338 11.7676 20.7816C11.7676 19.6294 11.0239 18.6953 10.1064 18.6953C9.18902 18.6953 8.44531 19.6294 8.44531 20.7816C8.44531 21.9338 9.18902 22.8678 10.1064 22.8678Z" stroke="white" stroke-width="2" stroke-miterlimit="10" stroke-linecap="round"/>
<path d="M2.76269 16.1647C3.68011 16.1647 4.42382 15.2307 4.42382 14.0784C4.42382 12.9262 3.68011 11.9922 2.76269 11.9922C1.84528 11.9922 1.10156 12.9262 1.10156 14.0784C1.10156 15.2307 1.84528 16.1647 2.76269 16.1647Z" stroke="white" stroke-width="2" stroke-miterlimit="10" stroke-linecap="round"/>
<path d="M10.104 11.7793L2.97656 22.8674" stroke="white" stroke-width="2" stroke-miterlimit="10" stroke-linecap="round"/>
</svg>
