<svg width="34" height="37" viewBox="0 0 34 37" fill="none" xmlns="http://www.w3.org/2000/svg">
<path d="M20.4018 35.3473H1V1H20.3493L28.251 8.94383V16.1155" stroke="white" stroke-width="2" stroke-miterlimit="10"/>
<path d="M20.3496 1V8.94383H28.2512" stroke="white" stroke-width="2" stroke-miterlimit="10"/>
<path d="M7.02637 13.4512H22.0201" stroke="white" stroke-width="2" stroke-miterlimit="10"/>
<path d="M7.02637 20.0117H14.5232" stroke="white" stroke-width="2" stroke-miterlimit="10"/>
<path d="M7.02637 26.752H14.5232" stroke="white" stroke-width="2" stroke-miterlimit="10"/>
<path d="M26.0619 35.1033C25.0094 34.4196 23.7626 33.4266 22.613 32.0104C19.407 28.0548 19.1965 23.5131 19.2127 21.8039C20.3137 21.3969 21.5281 20.876 22.8235 20.1761C24.0703 19.5087 25.1389 18.825 26.0619 18.1738C26.9686 18.8575 28.0858 19.59 29.4136 20.29C30.7089 20.9737 31.9233 21.4621 32.9758 21.8039C33.0568 23.2201 33.0729 27.306 30.3527 31.1314C28.9116 33.1825 27.2277 34.4033 26.0619 35.1033Z" stroke="white" stroke-width="2" stroke-miterlimit="10"/>
<path d="M23.751 26.1494L25.9531 28.3144L29.6286 24.0332" stroke="white" stroke-width="2" stroke-miterlimit="10"/>
</svg>
