<svg width="293" height="350" viewBox="0 0 293 350" fill="none" xmlns="http://www.w3.org/2000/svg">
<path d="M57.8433 177.807L73.3564 257.616C73.6354 259.051 75.3013 259.718 76.4894 258.871L231.91 148.068L57.8433 177.807Z" fill="#C0C0C0"/>
<path d="M74.0027 258.742C74.6666 259.322 75.6864 259.443 76.4895 258.871L231.91 148.068L75.8986 186.584L74.0027 258.742Z" fill="#E6E6E6"/>
<path d="M75.8991 186.584L143.077 228.693C144.631 229.667 146.646 229.463 147.972 228.197L231.911 148.068L75.8991 186.584Z" fill="#F9F9F9"/>
<path d="M57.8433 177.807L16.3165 149.738C14.667 148.623 15.4665 146.044 17.455 146.063L231.91 148.068L57.8433 177.807Z" fill="#F9F9F9"/>
<path d="M267.462 243.852C263.213 242.019 248.922 237.874 235.65 256.933C216.206 244.234 204.508 253.43 201.255 256.721C191.834 266.249 191.689 283.134 200.923 295.159C217.606 316.885 245.615 320.782 246.799 320.937C247.655 321.049 248.538 320.878 249.29 320.453C250.33 319.865 274.839 305.76 282.169 279.366C286.226 264.757 279.766 249.157 267.462 243.852Z" fill="#F7D90F"/>
<path d="M212.652 292.355C203.418 280.33 203.563 263.446 212.983 253.917C213.88 253.01 215.421 251.653 217.588 250.431C208.834 250.128 203.329 254.623 201.255 256.721C191.835 266.249 191.689 283.133 200.924 295.158C217.607 316.885 245.615 320.782 246.8 320.937C247.656 321.049 248.539 320.877 249.291 320.452C249.56 320.3 251.401 319.242 254.107 317.303C245.339 315.331 225.591 309.206 212.652 292.355Z" fill="#F6BB42"/>
<path d="M50.2312 74.926C48.1063 74.0098 40.9611 71.9372 34.3252 81.4667C24.603 75.1169 18.7541 79.7148 17.1273 81.3607C12.4173 86.1248 12.3443 94.567 16.9614 100.58C25.3032 111.443 39.3075 113.391 39.8994 113.469C40.3275 113.525 40.769 113.439 41.1451 113.227C41.6649 112.933 53.9196 105.88 57.5846 92.6833C59.6131 85.3788 56.3831 77.5787 50.2312 74.926Z" fill="#F7D90F"/>
<path d="M22.8759 99.0267C18.2588 93.0142 18.3318 84.5721 23.0418 79.8078C23.4551 79.3898 24.1414 78.7813 25.0939 78.21C20.833 78.1324 18.1483 80.3277 17.1274 81.3603C12.4172 86.125 12.3442 94.5671 16.9613 100.58C25.3031 111.443 39.3074 113.391 39.8993 113.469C40.3273 113.525 40.7691 113.439 41.145 113.227C41.2852 113.147 42.2778 112.577 43.7243 111.528C39.4043 110.571 29.4057 107.53 22.8759 99.0267Z" fill="#F6BB42"/>
<path d="M45.6193 298.953C40.5073 296.749 33.2349 297.5 27.0297 305.37C18.3274 300.397 11.3031 302.427 7.38982 306.384C1.60975 312.231 1.46489 322.518 7.05938 329.804C16.6402 342.281 32.6844 344.513 33.3628 344.602C34.219 344.714 35.1024 344.543 35.8542 344.118C36.4499 343.781 50.4886 335.701 54.6987 320.543C57.1559 311.692 53.1681 302.208 45.6193 298.953Z" fill="#88EDD2"/>
<path d="M40.0605 339.972C39.382 339.883 23.3388 337.651 13.757 325.174C8.54933 318.392 8.31726 309.012 12.9706 303.032C10.7297 303.709 8.84432 304.913 7.38935 306.385C1.60928 312.231 1.46442 322.518 7.05892 329.804C16.6398 342.281 32.6839 344.513 33.3624 344.602C34.2185 344.715 35.102 344.543 35.8537 344.118C36.0992 343.979 38.6283 342.523 41.8097 339.802C41.2472 339.983 40.6485 340.05 40.0605 339.972Z" fill="#88EDD2" style="mix-blend-mode:screen"/>
<path d="M205.889 3.37842C201.531 1.49442 195.331 2.13632 190.042 8.86231C182.624 4.61247 176.635 6.34673 173.3 9.7286C168.372 14.725 168.249 23.5155 173.018 29.7416C181.185 40.4042 194.862 42.3114 195.44 42.3875C196.17 42.4835 196.923 42.3367 197.564 41.9737C198.072 41.6859 210.039 34.7813 213.628 21.8283C215.723 14.2644 212.323 6.16001 205.889 3.37842Z" fill="#88EDD2"/>
<path d="M201.612 38.341C201.033 38.2648 187.357 36.357 179.189 25.695C174.735 19.8815 174.55 11.8325 178.557 6.72373C176.426 7.26673 174.646 8.36275 173.299 9.72808C168.372 14.7245 168.249 23.5149 173.018 29.7411C181.185 40.4037 194.862 42.3109 195.44 42.387C196.17 42.4829 196.923 42.3362 197.564 41.9732C197.773 41.8549 199.909 40.6227 202.604 38.3178C202.276 38.3712 201.942 38.3845 201.612 38.341Z" fill="#88EDD2" style="mix-blend-mode:screen"/>
</svg>
