<svg width="404" height="488" viewBox="0 0 404 488" fill="none" xmlns="http://www.w3.org/2000/svg">
<g id="illustration_paper plane copy">
<g id="Group 52">
<path id="Path" d="M119.337 260.523L142.477 379.611C142.893 381.752 145.378 382.748 147.15 381.483L378.984 216.146L119.337 260.523Z" fill="#C0C0C0"/>
<path id="Path_2" d="M143.441 381.292C144.431 382.158 145.952 382.338 147.15 381.484L378.984 216.147L146.269 273.62L143.441 381.292Z" fill="#E6E6E6"/>
<g id="Group">
<path id="Path_3" d="M146.27 273.614L246.48 336.454C248.799 337.907 251.805 337.603 253.783 335.714L378.984 216.158L146.27 273.614Z" fill="#F9F9F9"/>
<path id="Path_4" d="M119.335 260.516L57.3881 218.629C54.9274 216.965 56.1198 213.117 59.086 213.144L378.983 216.157L119.335 260.516Z" fill="#F9F9F9"/>
</g>
</g>
<g id="Group 49">
<path id="Path_5" d="M369.664 384.538C364.562 382.337 347.403 377.359 331.468 400.248C308.121 384.998 294.076 396.041 290.169 399.994C278.857 411.437 278.683 431.715 289.77 446.157C309.802 472.25 343.432 476.93 344.854 477.116C345.882 477.251 346.942 477.045 347.845 476.535C349.094 475.829 378.522 458.889 387.323 427.19C392.194 409.645 384.437 390.91 369.664 384.538Z" fill="#F7D90F"/>
<path id="Path_6" d="M303.853 442.789C292.766 428.348 292.941 408.07 304.252 396.626C305.329 395.537 307.179 393.907 309.781 392.439C299.27 392.075 292.659 397.474 290.17 399.993C278.859 411.436 278.684 431.714 289.771 446.156C309.803 472.249 343.433 476.929 344.855 477.115C345.883 477.25 346.943 477.044 347.846 476.534C348.169 476.351 350.379 475.08 353.628 472.751C343.101 470.383 319.389 463.027 303.853 442.789Z" fill="#F6BB42"/>
</g>
<g id="Group 51">
<path id="Path_7" d="M76.3856 4.70134C72.9446 3.22938 61.3735 -0.100444 50.6274 15.2099C34.8832 5.00812 25.4115 12.3951 22.777 15.0396C15.1496 22.6937 15.0314 36.257 22.5083 45.9171C36.0172 63.3706 58.6957 66.5004 59.6543 66.6251C60.3475 66.7153 61.0624 66.5774 61.6715 66.2361C62.5132 65.7642 82.3586 54.4334 88.2936 33.2306C91.5786 21.4951 86.348 8.96329 76.3856 4.70134Z" fill="#F7D90F"/>
<path id="Path_8" d="M32.0864 43.4212C24.6095 33.7615 24.7277 20.1982 32.3551 12.5437C33.0244 11.8722 34.1357 10.8946 35.6782 9.97681C28.7782 9.85205 24.4306 13.3791 22.7772 15.0381C15.1496 22.6931 15.0314 36.2564 22.5082 45.9161C36.0171 63.3696 58.6956 66.4994 59.6542 66.6241C60.3473 66.7139 61.0628 66.5763 61.6715 66.2351C61.8985 66.1077 63.5059 65.1909 65.8484 63.5064C58.8526 61.9685 42.6608 57.0835 32.0864 43.4212Z" fill="#F6BB42"/>
</g>
<g id="Group 48">
<path id="Path_9" d="M79.6535 310.731C70.7277 306.894 58.0298 308.201 47.1952 321.904C32.0006 313.246 19.7357 316.779 12.9029 323.669C2.81065 333.849 2.55772 351.759 12.326 364.444C29.0546 386.168 57.0685 390.054 58.2531 390.209C59.748 390.404 61.2906 390.105 62.6032 389.366C63.6433 388.78 88.1556 374.712 95.5067 348.321C99.7971 332.91 92.8341 316.398 79.6535 310.731Z" fill="#88EDD2"/>
<g id="Path_10">
<path d="M69.9476 382.149C68.763 381.994 40.7506 378.107 24.0204 356.384C14.9275 344.576 14.5223 328.245 22.6473 317.832C18.7346 319.012 15.4426 321.108 12.9021 323.67C2.80985 333.85 2.55691 351.76 12.3252 364.445C29.0538 386.169 57.0677 390.055 58.2523 390.21C59.7472 390.405 61.2898 390.106 62.6024 389.367C63.031 389.125 67.447 386.589 73.0018 381.853C72.0197 382.167 70.9743 382.283 69.9476 382.149Z" fill="#88EDD2" style="mix-blend-mode:screen"/>
</g>
</g>
<g id="Group 50">
<path id="Path_11" d="M201.685 62.9342C189.374 57.6194 171.859 59.4302 156.915 78.4044C135.958 66.4155 119.04 71.3079 109.615 80.8483C95.6951 94.9432 95.3462 119.741 108.82 137.306C131.894 167.385 170.534 172.766 172.167 172.98C174.229 173.251 176.357 172.837 178.168 171.813C179.602 171.001 213.412 151.523 223.552 114.982C229.468 93.644 219.864 70.7811 201.685 62.9342Z" fill="#88EDD2"/>
<g id="Path_12">
<path d="M189.603 161.565C187.969 161.35 149.331 155.968 126.255 125.89C113.672 109.49 113.148 86.7836 124.467 72.3716C118.447 73.9034 113.42 76.9953 109.615 80.847C95.6948 94.942 95.3459 119.74 108.819 137.304C131.893 167.384 170.533 172.764 172.167 172.979C174.229 173.25 176.357 172.836 178.167 171.812C178.756 171.478 184.791 168.002 192.405 161.5C191.479 161.65 190.534 161.688 189.603 161.565Z" fill="#88EDD2" style="mix-blend-mode:screen"/>
</g>
</g>
</g>
</svg>
