<svg xmlns="http://www.w3.org/2000/svg" width="66" height="203" viewBox="0 0 66 203">
    <path fill="#F2AFED" fill-rule="nonzero" d="M42.5.384c-55.845 55.845-55.845 146.387 0 202.232l22.627-22.627c-43.348-43.348-43.348-113.63 0-156.978L42.5.384z"/>
</svg>
