<svg width="10" height="14" viewBox="0 0 10 14" fill="none" xmlns="http://www.w3.org/2000/svg">
<path d="M6.29289 2.04304L6.58579 2.33594H3.41421L3.70711 2.04304L4.41421 1.33594H5.58579L6.29289 2.04304ZM2.33333 12.3359C2.24658 12.3359 2.19705 12.3201 2.17207 12.3089C2.1479 12.2981 2.12861 12.2838 2.10982 12.2615C2.06991 12.2143 2 12.0863 2 11.8359V5.33594H8.01481L8.11108 11.7859C8.10802 12.0867 7.85697 12.3359 7.55556 12.3359H2.33333Z" stroke="#80879F" stroke-width="2"/>
</svg>
