<svg width="100" height="100" viewBox="0 0 100 100" fill="none" xmlns="http://www.w3.org/2000/svg">
<path d="M97.1403 13.6709C95.6692 12.1973 93.2823 12.1948 91.8112 13.6647L46.5978 58.7588L30.2849 41.0414C28.8753 39.5114 26.4921 39.4121 24.9595 40.8215C23.428 42.2311 23.33 44.6155 24.7395 46.1469L43.7095 66.7487C44.4042 67.5037 45.3765 67.9422 46.4017 67.9635C46.4292 67.9647 46.4558 67.9647 46.4821 67.9647C47.4784 67.9647 48.4368 67.569 49.1429 66.8655L97.1329 19.0012C98.6077 17.5315 98.6102 15.1446 97.1403 13.6709Z" fill="#33323E"/>
<path d="M96.2311 46.2311C94.1494 46.2311 92.4623 47.9182 92.4623 50C92.4623 73.4146 73.4146 92.4623 50 92.4623C26.5867 92.4623 7.53769 73.4146 7.53769 50C7.53769 26.5867 26.5867 7.53769 50 7.53769C52.0816 7.53769 53.7689 5.85059 53.7689 3.76895C53.7689 1.68711 52.0816 0 50 0C22.4297 0 0 22.4297 0 50C0 77.5691 22.4297 100 50 100C77.5691 100 100 77.5691 100 50C100 47.9184 98.3129 46.2311 96.2311 46.2311Z" fill="#33323E"/>
</svg>
