<svg width="28" height="40" viewBox="0 0 28 40" fill="none" xmlns="http://www.w3.org/2000/svg">
<g clip-path="url(#clip0)">
<path d="M14.0006 -0.000478066C6.26833 -0.000478066 0.00012207 6.10488 0.00012207 13.6375C0.00012207 16.5318 1.51398 18.9913 2.65799 21.6369C2.77649 21.9105 11.2542 38.3576 11.2542 38.3576C11.5301 38.8555 11.9297 39.2696 12.4124 39.5577C12.8952 39.8457 13.4438 39.9975 14.0023 39.9975C14.5609 39.9975 15.1094 39.8457 15.5921 39.5577C16.0749 39.2696 16.4746 38.8555 16.7505 38.3576C16.7505 38.3576 25.2281 21.881 25.3466 21.6074C26.4895 18.9606 28.0045 16.4978 28.0045 13.6069C28.0045 6.10377 21.7363 -0.00158691 14.004 -0.00158691L14.0006 -0.000478066Z" fill="white"/>
<path d="M2.72585 21.7809C8.5954 18.4881 19.5161 18.9627 24.8751 22.5303C25.1542 21.9819 25.3247 21.6469 25.3402 21.6094C26.4831 18.9627 27.9982 16.4998 27.9982 13.609C27.9982 6.10584 21.7299 0.000488281 13.9976 0.000488281C6.26528 0.000488281 -0.00292969 6.10584 -0.00292969 13.6385C-0.00292969 16.5328 1.511 18.9922 2.65501 21.6379C2.66165 21.6526 2.68598 21.7003 2.72585 21.7809Z" fill="#FFCC00"/>
<path d="M9.57525 35.1061C13.1479 31.4385 18.0938 28.4432 22.2513 27.6529L23.207 25.7908C17.7129 26.4005 12.1324 27.8619 7.6084 31.2876L9.57525 35.1061Z" fill="#FFCC00"/>
<path d="M11.025 37.9188L11.2532 38.3605C11.5289 38.8585 11.9285 39.2726 12.4111 39.5607C12.8938 39.8488 13.4423 40.0005 14.0008 40.0005C14.5593 40.0005 15.1077 39.8488 15.5904 39.5607C16.0731 39.2726 16.4726 38.8585 16.7484 38.3605C16.7484 38.3605 18.9932 33.997 21.1893 29.7231C17.2712 31.6827 13.806 34.4767 11.025 37.9188Z" fill="#FFCC00"/>
<path d="M4.04907 24.367L6.07906 28.3151C11.1955 25.0586 18.8149 23.3655 23.8361 24.568L24.4153 23.4325C17.6321 21.7589 10.5288 20.6983 4.04907 24.367Z" fill="#FFCC00"/>
<path d="M14.2632 21.8734C12.5871 21.7846 10.9731 21.1939 9.62115 20.1743C8.26915 19.1546 7.2385 17.7508 6.65667 16.1367C6.07484 14.5226 5.96741 12.769 6.3477 11.0929C6.72798 9.41689 7.57922 7.89198 8.79616 6.7069C10.0131 5.52182 11.5423 4.72859 13.1944 4.42544C14.8465 4.12229 16.5491 4.32256 18.0914 5.00135C19.6337 5.68014 20.9479 6.80766 21.8716 8.24445C22.7952 9.68125 23.2877 11.3642 23.288 13.085C23.2256 15.4766 22.2403 17.7453 20.5484 19.393C18.8564 21.0406 16.596 21.9326 14.2632 21.8734Z" fill="white"/>
</g>
<defs>
<clipPath id="clip0">
<rect width="28" height="40" fill="white"/>
</clipPath>
</defs>
</svg>
