<svg width="35" height="35" viewBox="0 0 35 35" fill="none" xmlns="http://www.w3.org/2000/svg">
<circle cx="17.5" cy="17.5" r="16" fill="#3E378B" stroke="white" stroke-width="3"/>
<line x1="9.5" y1="11.5" x2="25.5" y2="11.5" stroke="white" stroke-width="3" stroke-linecap="round"/>
<line x1="9.5" y1="17.5" x2="25.5" y2="17.5" stroke="white" stroke-width="3" stroke-linecap="round"/>
<line x1="9.5" y1="23.5" x2="25.5" y2="23.5" stroke="white" stroke-width="3" stroke-linecap="round"/>
</svg>
