<svg width="55" height="56" viewBox="0 0 55 56" fill="none" xmlns="http://www.w3.org/2000/svg">
<path d="M31.6869 6.7146C30.4469 3.01693 25.2168 3.01693 23.9767 6.7146C23.8674 7.0406 23.4453 7.12456 23.2195 6.86521C20.6588 3.92357 15.8268 5.92503 16.0962 9.81579C16.1199 10.1588 15.7621 10.3979 15.4542 10.2447C11.9627 8.50694 8.26451 12.2052 10.0023 15.6967C10.1555 16.0045 9.91639 16.3623 9.57336 16.3386C5.6826 16.0693 3.68114 20.9012 6.62278 23.4619C6.88213 23.6877 6.79817 24.1098 6.47217 24.2191C2.77449 25.4592 2.7745 30.6893 6.47216 31.9294C6.79817 32.0387 6.88213 32.4608 6.62278 32.6866C3.68114 35.2473 5.6826 40.0793 9.57336 39.8099C9.9164 39.7862 10.1555 40.144 10.0023 40.4518C8.26451 43.9434 11.9627 47.6416 15.4542 45.9038C15.7621 45.7506 16.1199 45.9897 16.0962 46.3327C15.8268 50.2235 20.6588 52.2249 23.2195 49.2833C23.4453 49.0239 23.8674 49.1079 23.9767 49.4339C25.2168 53.1316 30.4469 53.1316 31.6869 49.4339C31.7963 49.1079 32.2184 49.0239 32.4441 49.2833C35.0049 52.2249 39.8368 50.2235 39.5675 46.3327C39.5437 45.9897 39.9016 45.7506 40.2094 45.9038C43.7009 47.6416 47.3991 43.9434 45.6614 40.4518C45.5082 40.144 45.7472 39.7862 46.0903 39.8099C49.981 40.0793 51.9825 35.2473 49.0409 32.6866C48.7815 32.4608 48.8655 32.0387 49.1915 31.9294C52.8892 30.6893 52.8891 25.4592 49.1915 24.2191C48.8655 24.1098 48.7815 23.6877 49.0409 23.4619C51.9825 20.9012 49.981 16.0693 46.0903 16.3386C45.7472 16.3623 45.5082 16.0045 45.6614 15.6967C47.3991 12.2052 43.7009 8.50694 40.2094 10.2447C39.9016 10.3979 39.5437 10.1588 39.5675 9.81579C39.8368 5.92503 35.0049 3.92358 32.4441 6.86521C32.2184 7.12456 31.7963 7.0406 31.6869 6.7146Z" fill="url(#paint0_linear)" stroke="white" stroke-width="3.62136"/>
<g filter="url(#filter0_d)">
<path d="M27.5014 16.1355C27.6293 15.8504 28.0341 15.8504 28.1621 16.1355L31.2631 23.0448C31.3158 23.1621 31.4267 23.2427 31.5546 23.2566L39.084 24.0707C39.3947 24.1043 39.5198 24.4893 39.2881 24.6991L33.6753 29.7835C33.58 29.8698 33.5376 30.0002 33.564 30.1261L35.1164 37.5385C35.1804 37.8444 34.8529 38.0824 34.5818 37.9269L28.0119 34.1599C27.9003 34.096 27.7632 34.096 27.6516 34.1599L21.0817 37.9269C20.8105 38.0824 20.483 37.8444 20.5471 37.5385L22.0995 30.1261C22.1259 30.0002 22.0835 29.8698 21.9882 29.7835L16.3753 24.6991C16.1437 24.4893 16.2688 24.1043 16.5795 24.0707L24.1089 23.2566C24.2367 23.2427 24.3477 23.1621 24.4003 23.0448L27.5014 16.1355Z" fill="white"/>
</g>
<defs>
<filter id="filter0_d" x="9.01314" y="12.3005" width="37.6372" height="36.5396" filterUnits="userSpaceOnUse" color-interpolation-filters="sRGB">
<feFlood flood-opacity="0" result="BackgroundImageFix"/>
<feColorMatrix in="SourceAlpha" type="matrix" values="0 0 0 0 0 0 0 0 0 0 0 0 0 0 0 0 0 0 127 0"/>
<feOffset dy="3.62136"/>
<feGaussianBlur stdDeviation="3.62136"/>
<feColorMatrix type="matrix" values="0 0 0 0 0.85098 0 0 0 0 0.545098 0 0 0 0 0.227451 0 0 0 1 0"/>
<feBlend mode="normal" in2="BackgroundImageFix" result="effect1_dropShadow"/>
<feBlend mode="normal" in="SourceGraphic" in2="effect1_dropShadow" result="shape"/>
</filter>
<linearGradient id="paint0_linear" x1="27.8318" y1="0.914062" x2="27.8318" y2="55.2344" gradientUnits="userSpaceOnUse">
<stop stop-color="#FFCB52"/>
<stop offset="1" stop-color="#D6853E"/>
</linearGradient>
</defs>
</svg>
