<svg width="32" height="21" viewBox="0 0 32 21" fill="none" xmlns="http://www.w3.org/2000/svg">
<path d="M2.34906 0H29.0173C30.3148 0 31.3665 1.0517 31.3665 2.34912V18.2015C31.3665 19.4988 30.3148 20.5506 29.0173 20.5506H2.34906C1.0517 20.5506 -5.72205e-05 19.4989 -5.72205e-05 18.2015V2.34912C-5.72205e-05 1.0517 1.05164 0 2.34906 0Z" fill="#41479B"/>
<path d="M0.000431061 4H31.3669V16.9791H0.000431061V4Z" fill="#F5F5F5"/>
<path d="M13.4044 9.8672L11.9995 7.43378H14.8093L16.2145 5L17.6196 7.43378H20.4294L19.0245 9.8672L20.4294 12.3006H17.6196L16.2145 14.7345L14.8094 12.3007H11.9996L13.4044 9.8672ZM13.3779 8.22971L13.8639 9.07146L14.3499 8.22971H13.3779ZM14.3234 9.8672L15.2689 11.5048H17.1602L18.1056 9.8672L17.1602 8.22965H15.2688L14.3234 9.8672ZM16.2145 6.59173L15.7283 7.43385H16.7007L16.2145 6.59173ZM19.0511 8.22971H18.0792L18.5652 9.07146L19.0511 8.22971ZM19.0511 11.5048L18.5651 10.663L18.0791 11.5048H19.0511ZM16.2145 13.1427L16.7007 12.3006H15.7283L16.2145 13.1427ZM13.8639 10.6631L13.3779 11.5048H14.3499L13.8639 10.6631Z" fill="#41479B"/>
</svg>
